<?xml version="1.0" encoding="UTF-8" standalone="no"?>
<!DOCTYPE svg PUBLIC "-//W3C//DTD SVG 1.1//EN"
 "http://www.w3.org/Graphics/SVG/1.1/DTD/svg11.dtd">
<!-- Generated by graphviz version 2.43.0 (0)
 -->
<!-- Title: medor Pages: 1 -->
<svg width="473pt" height="1693pt"
 viewBox="0.00 0.00 472.80 1692.74" xmlns="http://www.w3.org/2000/svg" xmlns:xlink="http://www.w3.org/1999/xlink">
<g id="graph0" class="graph" transform="scale(1 1) rotate(0) translate(4 1688.74)">
<title>medor</title>
<polygon fill="white" stroke="transparent" points="-4,4 -4,-1688.74 468.8,-1688.74 468.8,4 -4,4"/>
<g id="clust15" class="cluster">
<title>cluster_cahiers</title>
<polygon fill="none" stroke="transparent" points="114.3,-245 114.3,-331 184.3,-331 184.3,-245 114.3,-245"/>
</g>
<g id="clust13" class="cluster">
<title>cluster_cmyk</title>
<polygon fill="none" stroke="transparent" points="127.3,-423 127.3,-616 303.3,-616 303.3,-423 127.3,-423"/>
</g>
<g id="clust14" class="cluster">
<title>cluster_combine</title>
<polygon fill="none" stroke="transparent" points="57.3,-896 57.3,-982 127.3,-982 127.3,-896 57.3,-896"/>
</g>
<!-- html2print -->
<g id="node1" class="node">
<title>html2print</title>
<ellipse fill="none" stroke="black" cx="288.3" cy="-1029" rx="45.49" ry="18"/>
<text text-anchor="middle" x="288.3" y="-1025.3" font-family="Alfphabet" font-size="14.00">html2print</text>
</g>
<!-- ospkit -->
<g id="node25" class="node">
<title>ospkit</title>
<polygon fill="none" stroke="blue" points="332.28,-957 259.13,-957 240.31,-921 313.46,-921 332.28,-957"/>
<text text-anchor="middle" x="286.3" y="-935.3" font-family="Alfphabet" font-size="14.00" fill="blue">OSPKit</text>
</g>
<!-- html2print&#45;&gt;ospkit -->
<g id="edge23" class="edge">
<title>html2print&#45;&gt;ospkit</title>
<path fill="none" stroke="black" d="M287.9,-1010.61C287.62,-998.24 287.24,-981.37 286.92,-967.22"/>
<polygon fill="black" stroke="black" points="290.41,-966.97 286.69,-957.05 283.41,-967.13 290.41,-966.97"/>
</g>
<!-- inkscape -->
<g id="node2" class="node">
<title>inkscape</title>
<ellipse fill="none" stroke="black" cx="185.3" cy="-1029" rx="39.79" ry="18"/>
<text text-anchor="middle" x="185.3" y="-1025.3" font-family="Alfphabet" font-size="14.00">Inkscape</text>
</g>
<!-- pdf_inkscape -->
<g id="node5" class="node">
<title>pdf_inkscape</title>
<polygon fill="none" stroke="black" points="209.3,-786 161.3,-786 161.3,-716 215.3,-716 215.3,-780 209.3,-786"/>
<polyline fill="none" stroke="black" points="209.3,-786 209.3,-780 "/>
<polyline fill="none" stroke="black" points="215.3,-780 209.3,-780 "/>
<text text-anchor="middle" x="188.3" y="-754.8" font-family="Alfphabet" font-size="14.00">RGB</text>
<text text-anchor="middle" x="188.3" y="-739.8" font-family="Alfphabet" font-size="14.00">PDF</text>
</g>
<!-- inkscape&#45;&gt;pdf_inkscape -->
<g id="edge27" class="edge">
<title>inkscape&#45;&gt;pdf_inkscape</title>
<path fill="none" stroke="black" d="M185.49,-1010.73C185.94,-968.45 187.14,-858.65 187.81,-796.53"/>
<polygon fill="black" stroke="black" points="191.32,-796.29 187.93,-786.25 184.32,-796.21 191.32,-796.29"/>
</g>
<!-- scribus -->
<g id="node3" class="node">
<title>scribus</title>
<ellipse fill="none" stroke="black" cx="92.3" cy="-1029" rx="36" ry="18"/>
<text text-anchor="middle" x="92.3" y="-1025.3" font-family="Alfphabet" font-size="14.00">Scribus</text>
</g>
<!-- cmyk_pdf_3 -->
<g id="node28" class="node">
<title>cmyk_pdf_3</title>
<polygon fill="none" stroke="black" points="113.3,-974 65.3,-974 65.3,-904 119.3,-904 119.3,-968 113.3,-974"/>
<polyline fill="none" stroke="black" points="113.3,-974 113.3,-968 "/>
<polyline fill="none" stroke="black" points="119.3,-968 113.3,-968 "/>
<text text-anchor="middle" x="92.3" y="-942.8" font-family="Alfphabet" font-size="14.00">CMYK</text>
<text text-anchor="middle" x="92.3" y="-927.8" font-family="Alfphabet" font-size="14.00">PDF</text>
</g>
<!-- scribus&#45;&gt;cmyk_pdf_3 -->
<g id="edge26" class="edge">
<title>scribus&#45;&gt;cmyk_pdf_3</title>
<path fill="none" stroke="black" d="M92.3,-1010.61C92.3,-1002.96 92.3,-993.59 92.3,-984.21"/>
<polygon fill="black" stroke="black" points="95.8,-984.1 92.3,-974.1 88.8,-984.1 95.8,-984.1"/>
</g>
<!-- pdf_html2print -->
<g id="node4" class="node">
<title>pdf_html2print</title>
<polygon fill="none" stroke="black" points="290.3,-786 242.3,-786 242.3,-716 296.3,-716 296.3,-780 290.3,-786"/>
<polyline fill="none" stroke="black" points="290.3,-786 290.3,-780 "/>
<polyline fill="none" stroke="black" points="296.3,-780 290.3,-780 "/>
<text text-anchor="middle" x="269.3" y="-754.8" font-family="Alfphabet" font-size="14.00">RGB</text>
<text text-anchor="middle" x="269.3" y="-739.8" font-family="Alfphabet" font-size="14.00">PDF</text>
</g>
<!-- cmyk_conversion -->
<g id="node9" class="node">
<title>cmyk_conversion</title>
<polygon fill="none" stroke="black" points="256.8,-679 155.8,-679 155.8,-643 256.8,-643 256.8,-679"/>
<text text-anchor="middle" x="206.3" y="-657.3" font-family="Alfphabet" font-size="14.00">convert to cmyk</text>
</g>
<!-- pdf_html2print&#45;&gt;cmyk_conversion -->
<g id="edge28" class="edge">
<title>pdf_html2print&#45;&gt;cmyk_conversion</title>
<path fill="none" stroke="black" d="M244.94,-715.98C238.19,-706.55 230.97,-696.47 224.63,-687.61"/>
<polygon fill="black" stroke="black" points="227.29,-685.31 218.62,-679.22 221.6,-689.39 227.29,-685.31"/>
</g>
<!-- pdf_inkscape&#45;&gt;cmyk_conversion -->
<g id="edge29" class="edge">
<title>pdf_inkscape&#45;&gt;cmyk_conversion</title>
<path fill="none" stroke="black" d="M195.26,-715.98C197.07,-707.14 198.99,-697.73 200.72,-689.28"/>
<polygon fill="black" stroke="black" points="204.2,-689.72 202.78,-679.22 197.34,-688.31 204.2,-689.72"/>
</g>
<!-- medor -->
<g id="node6" class="node">
<title>medor</title>
<polygon fill="none" stroke="black" points="208.21,-1671.3 171.3,-1683.74 134.39,-1671.3 134.42,-1651.18 208.17,-1651.18 208.21,-1671.3"/>
<text text-anchor="middle" x="171.3" y="-1662.04" font-family="Alfphabet" font-size="14.00">Médor</text>
</g>
<!-- flatplan -->
<g id="node22" class="node">
<title>flatplan</title>
<polygon fill="none" stroke="black" points="210.8,-1609.74 143.8,-1609.74 143.8,-1613.74 131.8,-1613.74 131.8,-1539.74 210.8,-1539.74 210.8,-1609.74"/>
<polyline fill="none" stroke="black" points="131.8,-1609.74 143.8,-1609.74 "/>
<text text-anchor="middle" x="171.3" y="-1578.54" font-family="Alfphabet" font-size="14.00">flatplan</text>
<text text-anchor="middle" x="171.3" y="-1563.54" font-family="Alfphabet" font-size="14.00">( 128 pages )</text>
</g>
<!-- medor&#45;&gt;flatplan -->
<g id="edge1" class="edge">
<title>medor&#45;&gt;flatplan</title>
<path fill="none" stroke="black" d="M171.3,-1650.83C171.3,-1642.45 171.3,-1631.26 171.3,-1620.08"/>
<polygon fill="black" stroke="black" points="174.8,-1619.9 171.3,-1609.9 167.8,-1619.9 174.8,-1619.9"/>
</g>
<!-- editdesign -->
<g id="node7" class="node">
<title>editdesign</title>
<text text-anchor="middle" x="419.3" y="-1669.54" font-family="Alfphabet" font-size="14.00" fill="darkgrey">editorial </text>
<text text-anchor="middle" x="419.3" y="-1654.54" font-family="Alfphabet" font-size="14.00" fill="darkgrey">+ design work</text>
</g>
<!-- make_cmyk -->
<g id="node8" class="node">
<title>make_cmyk</title>
<text text-anchor="middle" x="419.3" y="-657.3" font-family="Alfphabet" font-size="14.00" fill="darkgrey">make cmyk</text>
</g>
<!-- editdesign&#45;&gt;make_cmyk -->
<g id="edge43" class="edge">
<title>editdesign&#45;&gt;make_cmyk</title>
<path fill="none" stroke="darkgrey" d="M419.3,-1646.67C419.3,-1628.69 419.3,-1600.31 419.3,-1575.74 419.3,-1575.74 419.3,-1575.74 419.3,-750 419.3,-729.63 419.3,-706.61 419.3,-689.22"/>
<polygon fill="darkgrey" stroke="darkgrey" points="422.8,-689.2 419.3,-679.2 415.8,-689.2 422.8,-689.2"/>
</g>
<!-- make_pdf -->
<g id="node10" class="node">
<title>make_pdf</title>
<text text-anchor="middle" x="419.3" y="-374.3" font-family="Alfphabet" font-size="14.00" fill="darkgrey">make pdf</text>
</g>
<!-- make_cmyk&#45;&gt;make_pdf -->
<g id="edge44" class="edge">
<title>make_cmyk&#45;&gt;make_pdf</title>
<path fill="none" stroke="darkgrey" d="M419.3,-642.85C419.3,-595.72 419.3,-463.96 419.3,-406.44"/>
<polygon fill="darkgrey" stroke="darkgrey" points="422.8,-406.29 419.3,-396.29 415.8,-406.29 422.8,-406.29"/>
</g>
<!-- mediabox_fix -->
<g id="node30" class="node">
<title>mediabox_fix</title>
<polygon fill="none" stroke="black" points="246.8,-591 165.8,-591 165.8,-555 246.8,-555 246.8,-591"/>
<text text-anchor="middle" x="206.3" y="-569.3" font-family="Alfphabet" font-size="14.00">fix mediabox</text>
</g>
<!-- cmyk_conversion&#45;&gt;mediabox_fix -->
<g id="edge30" class="edge">
<title>cmyk_conversion&#45;&gt;mediabox_fix</title>
<path fill="none" stroke="black" d="M206.3,-642.6C206.3,-630.75 206.3,-614.82 206.3,-601.29"/>
<polygon fill="black" stroke="black" points="209.8,-601.08 206.3,-591.08 202.8,-601.08 209.8,-601.08"/>
</g>
<!-- make_cahiers -->
<g id="node12" class="node">
<title>make_cahiers</title>
<text text-anchor="middle" x="419.3" y="-194.3" font-family="Alfphabet" font-size="14.00" fill="darkgrey">make cahiers</text>
</g>
<!-- make_pdf&#45;&gt;make_cahiers -->
<g id="edge45" class="edge">
<title>make_pdf&#45;&gt;make_cahiers</title>
<path fill="none" stroke="darkgrey" d="M419.3,-359.93C419.3,-328.97 419.3,-263.3 419.3,-226.13"/>
<polygon fill="darkgrey" stroke="darkgrey" points="422.8,-226.02 419.3,-216.02 415.8,-226.02 422.8,-226.02"/>
</g>
<!-- combine -->
<g id="node11" class="node">
<title>combine</title>
<polygon fill="none" stroke="black" points="178.8,-396 119.8,-396 119.8,-360 178.8,-360 178.8,-396"/>
<text text-anchor="middle" x="149.3" y="-374.3" font-family="Alfphabet" font-size="14.00">combine</text>
</g>
<!-- full_pdf -->
<g id="node29" class="node">
<title>full_pdf</title>
<polygon fill="none" stroke="black" points="170.3,-323 122.3,-323 122.3,-253 176.3,-253 176.3,-317 170.3,-323"/>
<polyline fill="none" stroke="black" points="170.3,-323 170.3,-317 "/>
<polyline fill="none" stroke="black" points="176.3,-317 170.3,-317 "/>
<text text-anchor="middle" x="149.3" y="-291.8" font-family="Alfphabet" font-size="14.00">FULL</text>
<text text-anchor="middle" x="149.3" y="-276.8" font-family="Alfphabet" font-size="14.00">PDF</text>
</g>
<!-- combine&#45;&gt;full_pdf -->
<g id="edge36" class="edge">
<title>combine:s&#45;&gt;full_pdf:n</title>
<path fill="none" stroke="black" d="M149.3,-360C149.3,-348 149.3,-342.75 149.3,-334.12"/>
<polygon fill="black" stroke="black" points="152.8,-334 149.3,-324 145.8,-334 152.8,-334"/>
</g>
<!-- empty -->
<g id="node14" class="node">
<title>empty</title>
<text text-anchor="middle" x="419.3" y="-14.3" font-family="Alfphabet" font-size="14.00" fill="darkgrey">printing</text>
</g>
<!-- make_cahiers&#45;&gt;empty -->
<g id="edge46" class="edge">
<title>make_cahiers&#45;&gt;empty</title>
<path fill="none" stroke="darkgrey" d="M419.3,-179.93C419.3,-148.97 419.3,-83.3 419.3,-46.13"/>
<polygon fill="darkgrey" stroke="darkgrey" points="422.8,-46.02 419.3,-36.02 415.8,-46.02 422.8,-46.02"/>
</g>
<!-- split -->
<g id="node13" class="node">
<title>split</title>
<polygon fill="none" stroke="black" points="176.3,-216 122.3,-216 122.3,-180 176.3,-180 176.3,-216"/>
<text text-anchor="middle" x="149.3" y="-194.3" font-family="Alfphabet" font-size="14.00">split</text>
</g>
<!-- cahier_1 -->
<g id="node18" class="node">
<title>cahier_1</title>
<polygon fill="none" stroke="black" points="62.3,-143 14.3,-143 14.3,-73 68.3,-73 68.3,-137 62.3,-143"/>
<polyline fill="none" stroke="black" points="62.3,-143 62.3,-137 "/>
<polyline fill="none" stroke="black" points="68.3,-137 62.3,-137 "/>
<text text-anchor="middle" x="41.3" y="-111.8" font-family="Alfphabet" font-size="14.00">CAHIER</text>
<text text-anchor="middle" x="41.3" y="-96.8" font-family="Alfphabet" font-size="14.00">1</text>
</g>
<!-- split&#45;&gt;cahier_1 -->
<g id="edge38" class="edge">
<title>split:w&#45;&gt;cahier_1:n</title>
<path fill="none" stroke="black" d="M121.3,-198C81.69,-198 47.39,-188.01 42.02,-153"/>
<polygon fill="black" stroke="black" points="45.51,-152.72 41.3,-143 38.53,-153.23 45.51,-152.72"/>
</g>
<!-- cahier_2 -->
<g id="node19" class="node">
<title>cahier_2</title>
<polygon fill="none" stroke="black" points="134.3,-143 86.3,-143 86.3,-73 140.3,-73 140.3,-137 134.3,-143"/>
<polyline fill="none" stroke="black" points="134.3,-143 134.3,-137 "/>
<polyline fill="none" stroke="black" points="140.3,-137 134.3,-137 "/>
<text text-anchor="middle" x="113.3" y="-111.8" font-family="Alfphabet" font-size="14.00">CAHIER</text>
<text text-anchor="middle" x="113.3" y="-96.8" font-family="Alfphabet" font-size="14.00">2</text>
</g>
<!-- split&#45;&gt;cahier_2 -->
<g id="edge39" class="edge">
<title>split:w&#45;&gt;cahier_2:n</title>
<path fill="none" stroke="black" d="M121.3,-198C99.88,-198 109.59,-175.22 112.55,-153.05"/>
<polygon fill="black" stroke="black" points="116.05,-153.23 113.3,-143 109.07,-152.71 116.05,-153.23"/>
</g>
<!-- cahier_3 -->
<g id="node20" class="node">
<title>cahier_3</title>
<polygon fill="none" stroke="black" points="206.3,-143 158.3,-143 158.3,-73 212.3,-73 212.3,-137 206.3,-143"/>
<polyline fill="none" stroke="black" points="206.3,-143 206.3,-137 "/>
<polyline fill="none" stroke="black" points="212.3,-137 206.3,-137 "/>
<text text-anchor="middle" x="185.3" y="-111.8" font-family="Alfphabet" font-size="14.00">CAHIER</text>
<text text-anchor="middle" x="185.3" y="-96.8" font-family="Alfphabet" font-size="14.00">3</text>
</g>
<!-- split&#45;&gt;cahier_3 -->
<g id="edge40" class="edge">
<title>split:e&#45;&gt;cahier_3:n</title>
<path fill="none" stroke="black" d="M177.3,-198C198.72,-198 189,-175.22 186.05,-153.05"/>
<polygon fill="black" stroke="black" points="189.53,-152.71 185.3,-143 182.55,-153.23 189.53,-152.71"/>
</g>
<!-- cahier_4 -->
<g id="node21" class="node">
<title>cahier_4</title>
<polygon fill="none" stroke="black" points="278.3,-143 230.3,-143 230.3,-73 284.3,-73 284.3,-137 278.3,-143"/>
<polyline fill="none" stroke="black" points="278.3,-143 278.3,-137 "/>
<polyline fill="none" stroke="black" points="284.3,-137 278.3,-137 "/>
<text text-anchor="middle" x="257.3" y="-111.8" font-family="Alfphabet" font-size="14.00">CAHIER</text>
<text text-anchor="middle" x="257.3" y="-96.8" font-family="Alfphabet" font-size="14.00">4</text>
</g>
<!-- split&#45;&gt;cahier_4 -->
<g id="edge41" class="edge">
<title>split:e&#45;&gt;cahier_4:n</title>
<path fill="none" stroke="black" d="M177.3,-198C216.91,-198 251.21,-188.01 256.57,-153"/>
<polygon fill="black" stroke="black" points="260.06,-153.23 257.3,-143 253.08,-152.72 260.06,-153.23"/>
</g>
<!-- bottom -->
<g id="node15" class="node">
<title>bottom</title>
<text text-anchor="middle" x="257.3" y="-14.3" font-family="Alfphabet" font-size="14.00"> </text>
</g>
<!-- nextcloud -->
<g id="node16" class="node">
<title>nextcloud</title>
<polygon fill="none" stroke="black" points="203.8,-1339 138.8,-1339 138.8,-1303 203.8,-1303 203.8,-1339"/>
<text text-anchor="middle" x="171.3" y="-1317.3" font-family="Alfphabet" font-size="14.00">Nextcloud</text>
</g>
<!-- nextcloud&#45;&gt;nextcloud -->
<g id="edge14" class="edge">
<title>nextcloud&#45;&gt;nextcloud</title>
<path fill="none" stroke="black" d="M203.84,-1327.74C213.9,-1327.61 221.8,-1325.36 221.8,-1321 221.8,-1318.28 218.71,-1316.38 213.94,-1315.3"/>
<polygon fill="black" stroke="black" points="214.15,-1311.8 203.84,-1314.26 213.43,-1318.77 214.15,-1311.8"/>
<text text-anchor="middle" x="255.3" y="-1317.3" font-family="Alfphabet" font-size="14.00">proofreading</text>
</g>
<!-- Wagtail CMS -->
<g id="node36" class="node">
<title>Wagtail CMS</title>
<ellipse fill="none" stroke="black" cx="171.3" cy="-1175" rx="48.19" ry="18"/>
<text text-anchor="middle" x="171.3" y="-1171.3" font-family="Alfphabet" font-size="14.00">Wagtail CMS</text>
</g>
<!-- nextcloud&#45;&gt;Wagtail CMS -->
<g id="edge13" class="edge">
<title>nextcloud&#45;&gt;Wagtail CMS</title>
<path fill="none" stroke="black" d="M171.3,-1302.92C171.3,-1278.34 171.3,-1232.75 171.3,-1203.43"/>
<polygon fill="black" stroke="black" points="174.8,-1203.06 171.3,-1193.06 167.8,-1203.06 174.8,-1203.06"/>
</g>
<!-- gitlab -->
<g id="node17" class="node">
<title>gitlab</title>
<polygon fill="none" stroke="black" points="391.3,-1339 337.3,-1339 337.3,-1303 391.3,-1303 391.3,-1339"/>
<text text-anchor="middle" x="364.3" y="-1317.3" font-family="Alfphabet" font-size="14.00">Gitlab</text>
</g>
<!-- .html -->
<g id="node38" class="node">
<title>.html</title>
<ellipse fill="none" stroke="black" cx="364.3" cy="-1248" rx="27" ry="18"/>
<text text-anchor="middle" x="364.3" y="-1244.3" font-family="Alfphabet" font-size="14.00">.html</text>
</g>
<!-- gitlab&#45;&gt;.html -->
<g id="edge17" class="edge">
<title>gitlab&#45;&gt;.html</title>
<path fill="none" stroke="black" d="M364.3,-1292.75C364.3,-1287.28 364.3,-1281.52 364.3,-1276.05"/>
<polygon fill="black" stroke="black" points="360.8,-1292.81 364.3,-1302.81 367.8,-1292.81 360.8,-1292.81"/>
<polygon fill="black" stroke="black" points="367.8,-1276.03 364.3,-1266.03 360.8,-1276.03 367.8,-1276.03"/>
</g>
<!-- cahier_4&#45;&gt;bottom -->
<g id="edge42" class="edge">
<title>cahier_4&#45;&gt;bottom</title>
<path fill="none" stroke="transparent" d="M257.3,-72.98C257.3,-64.14 257.3,-54.73 257.3,-46.28"/>
<polygon fill="transparent" stroke="transparent" points="260.8,-46.22 257.3,-36.22 253.8,-46.22 260.8,-46.22"/>
</g>
<!-- content -->
<g id="node23" class="node">
<title>content</title>
<ellipse fill="none" stroke="black" cx="171.3" cy="-1475.87" rx="45.92" ry="26.74"/>
<text text-anchor="middle" x="171.3" y="-1479.67" font-family="Alfphabet" font-size="14.00">articles</text>
<text text-anchor="middle" x="171.3" y="-1464.67" font-family="Alfphabet" font-size="14.00">+ images</text>
</g>
<!-- flatplan&#45;&gt;content -->
<g id="edge2" class="edge">
<title>flatplan&#45;&gt;content</title>
<path fill="none" stroke="black" d="M171.3,-1539.59C171.3,-1530.99 171.3,-1521.73 171.3,-1513.04"/>
<polygon fill="black" stroke="black" points="174.8,-1512.8 171.3,-1502.8 167.8,-1512.8 174.8,-1512.8"/>
</g>
<!-- .docx -->
<g id="node31" class="node">
<title>.docx</title>
<ellipse fill="none" stroke="black" cx="27.3" cy="-1394" rx="27.1" ry="18"/>
<text text-anchor="middle" x="27.3" y="-1390.3" font-family="Alfphabet" font-size="14.00">.docx</text>
</g>
<!-- content&#45;&gt;.docx -->
<g id="edge3" class="edge">
<title>content&#45;&gt;.docx</title>
<path fill="none" stroke="black" d="M138.62,-1456.75C114.01,-1443.09 80.55,-1424.54 56.75,-1411.34"/>
<polygon fill="black" stroke="black" points="58.28,-1408.18 47.83,-1406.39 54.88,-1414.3 58.28,-1408.18"/>
</g>
<!-- .odt -->
<g id="node32" class="node">
<title>.odt</title>
<ellipse fill="none" stroke="black" cx="99.3" cy="-1394" rx="27" ry="18"/>
<text text-anchor="middle" x="99.3" y="-1390.3" font-family="Alfphabet" font-size="14.00">.odt</text>
</g>
<!-- content&#45;&gt;.odt -->
<g id="edge4" class="edge">
<title>content&#45;&gt;.odt</title>
<path fill="none" stroke="black" d="M150.47,-1451.77C140.81,-1441.05 129.36,-1428.35 119.74,-1417.68"/>
<polygon fill="black" stroke="black" points="122.1,-1415.07 112.81,-1409.98 116.9,-1419.76 122.1,-1415.07"/>
</g>
<!-- .jpg -->
<g id="node33" class="node">
<title>.jpg</title>
<ellipse fill="none" stroke="black" cx="171.3" cy="-1394" rx="27" ry="18"/>
<text text-anchor="middle" x="171.3" y="-1390.3" font-family="Alfphabet" font-size="14.00">.jpg</text>
</g>
<!-- content&#45;&gt;.jpg -->
<g id="edge5" class="edge">
<title>content&#45;&gt;.jpg</title>
<path fill="none" stroke="black" d="M171.3,-1448.72C171.3,-1440.27 171.3,-1430.89 171.3,-1422.36"/>
<polygon fill="black" stroke="black" points="174.8,-1422.15 171.3,-1412.15 167.8,-1422.15 174.8,-1422.15"/>
</g>
<!-- .png -->
<g id="node34" class="node">
<title>.png</title>
<ellipse fill="none" stroke="black" cx="243.3" cy="-1394" rx="27" ry="18"/>
<text text-anchor="middle" x="243.3" y="-1390.3" font-family="Alfphabet" font-size="14.00">.png</text>
</g>
<!-- content&#45;&gt;.png -->
<g id="edge6" class="edge">
<title>content&#45;&gt;.png</title>
<path fill="none" stroke="black" d="M192.12,-1451.77C201.79,-1441.05 213.24,-1428.35 222.85,-1417.68"/>
<polygon fill="black" stroke="black" points="225.69,-1419.76 229.79,-1409.98 220.49,-1415.07 225.69,-1419.76"/>
</g>
<!-- .tiff -->
<g id="node35" class="node">
<title>.tiff</title>
<ellipse fill="none" stroke="black" cx="315.3" cy="-1394" rx="27" ry="18"/>
<text text-anchor="middle" x="315.3" y="-1390.3" font-family="Alfphabet" font-size="14.00">.tiff</text>
</g>
<!-- content&#45;&gt;.tiff -->
<g id="edge7" class="edge">
<title>content&#45;&gt;.tiff</title>
<path fill="none" stroke="black" d="M203.97,-1456.75C228.73,-1443.01 262.45,-1424.31 286.26,-1411.1"/>
<polygon fill="black" stroke="black" points="288.14,-1414.07 295.18,-1406.16 284.74,-1407.95 288.14,-1414.07"/>
</g>
<!-- cssregions -->
<g id="node24" class="node">
<title>cssregions</title>
<polygon fill="none" stroke="fuchsia" points="330.62,-837.54 330.62,-852.46 298.8,-863 253.79,-863 221.97,-852.46 221.97,-837.54 253.79,-827 298.8,-827 330.62,-837.54"/>
<polygon fill="none" stroke="fuchsia" points="334.64,-834.66 334.64,-855.34 299.45,-867 253.15,-867 217.96,-855.34 217.96,-834.66 253.15,-823 299.45,-823 334.64,-834.66"/>
<text text-anchor="middle" x="276.3" y="-841.3" font-family="Alfphabet" font-size="14.00" fill="fuchsia">CSS Regions</text>
</g>
<!-- cssregions&#45;&gt;pdf_html2print -->
<g id="edge25" class="edge">
<title>cssregions&#45;&gt;pdf_html2print</title>
<path fill="none" stroke="black" d="M274.67,-822.66C274.08,-814.79 273.37,-805.56 272.68,-796.41"/>
<polygon fill="black" stroke="black" points="276.15,-795.9 271.9,-786.19 269.17,-796.43 276.15,-795.9"/>
</g>
<!-- ospkit&#45;&gt;cssregions -->
<g id="edge24" class="edge">
<title>ospkit&#45;&gt;cssregions</title>
<path fill="none" stroke="black" d="M284.42,-920.7C283.09,-908.47 281.27,-891.73 279.69,-877.2"/>
<polygon fill="black" stroke="black" points="283.15,-876.67 278.59,-867.1 276.19,-877.42 283.15,-876.67"/>
</g>
<!-- cmyk_pdf_1 -->
<g id="node26" class="node">
<title>cmyk_pdf_1</title>
<polygon fill="none" stroke="black" points="200.3,-518 152.3,-518 152.3,-448 206.3,-448 206.3,-512 200.3,-518"/>
<polyline fill="none" stroke="black" points="200.3,-518 200.3,-512 "/>
<polyline fill="none" stroke="black" points="206.3,-512 200.3,-512 "/>
<text text-anchor="middle" x="179.3" y="-486.8" font-family="Alfphabet" font-size="14.00">CMYK</text>
<text text-anchor="middle" x="179.3" y="-471.8" font-family="Alfphabet" font-size="14.00">PDF</text>
</g>
<!-- cmyk_pdf_1&#45;&gt;combine -->
<g id="edge33" class="edge">
<title>cmyk_pdf_1:s&#45;&gt;combine:e</title>
<path fill="none" stroke="black" d="M179.3,-447C179.3,-420.88 202.26,-389.21 190.14,-380.38"/>
<polygon fill="black" stroke="black" points="190.84,-376.95 180.3,-378 189.19,-383.75 190.84,-376.95"/>
</g>
<!-- cmyk_pdf_2 -->
<g id="node27" class="node">
<title>cmyk_pdf_2</title>
<polygon fill="none" stroke="black" points="272.3,-518 224.3,-518 224.3,-448 278.3,-448 278.3,-512 272.3,-518"/>
<polyline fill="none" stroke="black" points="272.3,-518 272.3,-512 "/>
<polyline fill="none" stroke="black" points="278.3,-512 272.3,-512 "/>
<text text-anchor="middle" x="251.3" y="-486.8" font-family="Alfphabet" font-size="14.00">CMYK</text>
<text text-anchor="middle" x="251.3" y="-471.8" font-family="Alfphabet" font-size="14.00">PDF</text>
</g>
<!-- cmyk_pdf_2&#45;&gt;combine -->
<g id="edge34" class="edge">
<title>cmyk_pdf_2:s&#45;&gt;combine:e</title>
<path fill="none" stroke="black" d="M251.3,-447C251.3,-406.44 228.35,-382.02 190.29,-378.45"/>
<polygon fill="black" stroke="black" points="190.45,-374.96 180.3,-378 190.13,-381.95 190.45,-374.96"/>
</g>
<!-- cmyk_pdf_3&#45;&gt;combine -->
<g id="edge35" class="edge">
<title>cmyk_pdf_3:s&#45;&gt;combine:w</title>
<path fill="none" stroke="black" d="M92.3,-903C92.3,-877.67 92.3,-871.33 92.3,-846 92.3,-846 92.3,-846 92.3,-482 92.3,-438.26 74.06,-387.19 107.92,-379.1"/>
<polygon fill="black" stroke="black" points="108.72,-382.54 118.3,-378 107.98,-375.58 108.72,-382.54"/>
</g>
<!-- full_pdf&#45;&gt;split -->
<g id="edge37" class="edge">
<title>full_pdf&#45;&gt;split</title>
<path fill="none" stroke="black" d="M149.3,-252.98C149.3,-244.14 149.3,-234.73 149.3,-226.28"/>
<polygon fill="black" stroke="black" points="152.8,-226.22 149.3,-216.22 145.8,-226.22 152.8,-226.22"/>
</g>
<!-- mediabox_fix&#45;&gt;cmyk_pdf_1 -->
<g id="edge31" class="edge">
<title>mediabox_fix&#45;&gt;cmyk_pdf_1:n</title>
<path fill="none" stroke="black" d="M192.48,-554.58C187.55,-547.1 182.68,-537.85 180.49,-528.17"/>
<polygon fill="black" stroke="black" points="183.94,-527.52 179.3,-518 176.99,-528.34 183.94,-527.52"/>
</g>
<!-- mediabox_fix&#45;&gt;cmyk_pdf_2 -->
<g id="edge32" class="edge">
<title>mediabox_fix&#45;&gt;cmyk_pdf_2:n</title>
<path fill="none" stroke="black" d="M230.9,-554.87C238.95,-547.64 246.63,-538.45 249.79,-527.97"/>
<polygon fill="black" stroke="black" points="253.26,-528.41 251.3,-518 246.34,-527.36 253.26,-528.41"/>
</g>
<!-- .docx&#45;&gt;nextcloud -->
<g id="edge8" class="edge">
<title>.docx&#45;&gt;nextcloud</title>
<path fill="none" stroke="black" d="M48.55,-1382.52C69.82,-1372.03 103.12,-1355.61 129.68,-1342.52"/>
<polygon fill="black" stroke="black" points="131.34,-1345.61 138.76,-1338.04 128.24,-1339.33 131.34,-1345.61"/>
</g>
<!-- .odt&#45;&gt;nextcloud -->
<g id="edge9" class="edge">
<title>.odt&#45;&gt;nextcloud</title>
<path fill="none" stroke="black" d="M113.87,-1378.63C123.28,-1369.35 135.77,-1357.03 146.7,-1346.26"/>
<polygon fill="black" stroke="black" points="149.29,-1348.61 153.96,-1339.1 144.38,-1343.63 149.29,-1348.61"/>
</g>
<!-- .jpg&#45;&gt;nextcloud -->
<g id="edge10" class="edge">
<title>.jpg&#45;&gt;nextcloud</title>
<path fill="none" stroke="black" d="M171.3,-1375.81C171.3,-1367.79 171.3,-1358.05 171.3,-1349.07"/>
<polygon fill="black" stroke="black" points="174.8,-1349.03 171.3,-1339.03 167.8,-1349.03 174.8,-1349.03"/>
</g>
<!-- .png&#45;&gt;nextcloud -->
<g id="edge11" class="edge">
<title>.png&#45;&gt;nextcloud</title>
<path fill="none" stroke="black" d="M228.73,-1378.63C219.31,-1369.35 206.82,-1357.03 195.9,-1346.26"/>
<polygon fill="black" stroke="black" points="198.22,-1343.63 188.64,-1339.1 193.3,-1348.61 198.22,-1343.63"/>
</g>
<!-- .tiff&#45;&gt;nextcloud -->
<g id="edge12" class="edge">
<title>.tiff&#45;&gt;nextcloud</title>
<path fill="none" stroke="black" d="M294.05,-1382.52C272.78,-1372.03 239.47,-1355.61 212.92,-1342.52"/>
<polygon fill="black" stroke="black" points="214.36,-1339.33 203.84,-1338.04 211.26,-1345.61 214.36,-1339.33"/>
</g>
<!-- Wagtail CMS&#45;&gt;inkscape -->
<g id="edge21" class="edge">
<title>Wagtail CMS&#45;&gt;inkscape</title>
<path fill="none" stroke="black" d="M172.96,-1156.92C175.36,-1132.23 179.82,-1086.35 182.67,-1057.04"/>
<polygon fill="black" stroke="black" points="186.15,-1057.35 183.64,-1047.06 179.19,-1056.68 186.15,-1057.35"/>
</g>
<!-- Wagtail CMS&#45;&gt;scribus -->
<g id="edge22" class="edge">
<title>Wagtail CMS&#45;&gt;scribus</title>
<path fill="none" stroke="black" d="M162.08,-1157.2C148.34,-1132.16 122.4,-1084.87 106.31,-1055.53"/>
<polygon fill="black" stroke="black" points="109.33,-1053.78 101.46,-1046.69 103.2,-1057.14 109.33,-1053.78"/>
</g>
<!-- Wagtail CMS API -->
<g id="node37" class="node">
<title>Wagtail CMS API</title>
<ellipse fill="none" stroke="black" cx="259.3" cy="-1102" rx="59.59" ry="18"/>
<text text-anchor="middle" x="259.3" y="-1098.3" font-family="Alfphabet" font-size="14.00">Wagtail CMS API</text>
</g>
<!-- Wagtail CMS&#45;&gt;Wagtail CMS API -->
<g id="edge15" class="edge">
<title>Wagtail CMS&#45;&gt;Wagtail CMS API</title>
<path fill="none" stroke="black" d="M190.83,-1158.24C202.74,-1148.63 218.15,-1136.2 231.34,-1125.56"/>
<polygon fill="black" stroke="black" points="233.63,-1128.21 239.21,-1119.21 229.23,-1122.76 233.63,-1128.21"/>
</g>
<!-- Wagtail CMS API&#45;&gt;html2print -->
<g id="edge16" class="edge">
<title>Wagtail CMS API&#45;&gt;html2print</title>
<path fill="none" stroke="black" d="M266.32,-1083.81C269.67,-1075.62 273.75,-1065.62 277.48,-1056.48"/>
<polygon fill="black" stroke="black" points="280.8,-1057.61 281.34,-1047.03 274.32,-1054.96 280.8,-1057.61"/>
</g>
<!-- .css -->
<g id="node39" class="node">
<title>.css</title>
<ellipse fill="none" stroke="black" cx="364.3" cy="-1175" rx="27" ry="18"/>
<text text-anchor="middle" x="364.3" y="-1171.3" font-family="Alfphabet" font-size="14.00">.css</text>
</g>
<!-- .html&#45;&gt;.css -->
<g id="edge18" class="edge">
<title>.html&#45;&gt;.css</title>
<path fill="none" stroke="black" stroke-dasharray="5,2" d="M364.3,-1229.81C364.3,-1218.65 364.3,-1204.16 364.3,-1193.03"/>
</g>
<!-- .js -->
<g id="node40" class="node">
<title>.js</title>
<ellipse fill="none" stroke="black" cx="364.3" cy="-1102" rx="27" ry="18"/>
<text text-anchor="middle" x="364.3" y="-1098.3" font-family="Alfphabet" font-size="14.00">.js</text>
</g>
<!-- .css&#45;&gt;.js -->
<g id="edge19" class="edge">
<title>.css&#45;&gt;.js</title>
<path fill="none" stroke="black" stroke-dasharray="5,2" d="M364.3,-1156.81C364.3,-1145.65 364.3,-1131.16 364.3,-1120.03"/>
</g>
<!-- .js&#45;&gt;html2print -->
<g id="edge20" class="edge">
<title>.js&#45;&gt;html2print</title>
<path fill="none" stroke="black" d="M341.95,-1080.13C332.75,-1071.53 322.07,-1061.55 312.67,-1052.77"/>
<polygon fill="black" stroke="black" points="339.59,-1082.7 349.28,-1086.97 344.36,-1077.59 339.59,-1082.7"/>
<polygon fill="black" stroke="black" points="314.83,-1050 305.13,-1045.73 310.05,-1055.11 314.83,-1050"/>
</g>
</g>
</svg>
