<?xml version="1.0" encoding="UTF-8" standalone="no"?>
<!DOCTYPE svg PUBLIC "-//W3C//DTD SVG 1.1//EN"
 "http://www.w3.org/Graphics/SVG/1.1/DTD/svg11.dtd">
<!-- Generated by graphviz version 2.43.0 (0)
 -->
<!-- Title: %3 Pages: 1 -->
<svg width="1070pt" height="1070pt"
 viewBox="0.00 0.00 1069.80 1070.17" xmlns="http://www.w3.org/2000/svg" xmlns:xlink="http://www.w3.org/1999/xlink">
<g id="graph0" class="graph" transform="scale(1 1) rotate(0) translate(4 1066.17)">
<title>%3</title>
<polygon fill="white" stroke="transparent" points="-4,4 -4,-1066.17 1065.8,-1066.17 1065.8,4 -4,4"/>
<!-- w3c -->
<g id="node1" class="node">
<title>w3c</title>
<polygon fill="none" stroke="black" points="550.9,-1038.65 507,-1062.26 463.1,-1038.65 463.14,-1000.44 550.86,-1000.44 550.9,-1038.65"/>
<text text-anchor="middle" x="507" y="-1016.39" font-family="Times,serif" font-size="14.00">W3C</text>
</g>
<!-- csswg -->
<g id="node2" class="node">
<title>csswg</title>
<ellipse fill="none" stroke="black" cx="507" cy="-939" rx="102.88" ry="18"/>
<text text-anchor="middle" x="507" y="-935.3" font-family="Times,serif" font-size="14.00">CSS Working Group</text>
</g>
<!-- w3c&#45;&gt;csswg -->
<g id="edge1" class="edge">
<title>w3c&#45;&gt;csswg</title>
<path fill="none" stroke="black" d="M507,-1000.01C507,-989.63 507,-977.79 507,-967.39"/>
<polygon fill="black" stroke="black" points="510.5,-967.19 507,-957.19 503.5,-967.19 510.5,-967.19"/>
</g>
<!-- implementation -->
<g id="node3" class="node">
<title>implementation</title>
<g id="a_node3"><a xlink:href="https://www.w3.org/TR/CSS/#responsible" xlink:title="Requirements for Responsible Implementation of CSS">
<text text-anchor="middle" x="507" y="-862.3" font-family="Times,serif" font-size="14.00">Requirements for Responsible Implementation of CSS</text>
</a>
</g>
</g>
<!-- csswg&#45;&gt;implementation -->
<g id="edge2" class="edge">
<title>csswg&#45;&gt;implementation</title>
<path fill="none" stroke="black" d="M507,-920.81C507,-912.79 507,-903.05 507,-894.07"/>
<polygon fill="black" stroke="black" points="510.5,-894.03 507,-884.03 503.5,-894.03 510.5,-894.03"/>
</g>
<!-- partial -->
<g id="node4" class="node">
<title>partial</title>
<polygon fill="none" stroke="black" points="376.5,-811 239.5,-811 239.5,-773 376.5,-773 376.5,-811"/>
<text text-anchor="middle" x="308" y="-795.8" font-family="Times,serif" font-size="14.00">Partial</text>
<text text-anchor="middle" x="308" y="-780.8" font-family="Times,serif" font-size="14.00">Implementations</text>
</g>
<!-- implementation&#45;&gt;partial -->
<g id="edge3" class="edge">
<title>implementation&#45;&gt;partial</title>
<path fill="none" stroke="black" d="M459.84,-847.94C432.27,-837.96 397.2,-825.27 367.72,-814.61"/>
<polygon fill="black" stroke="black" points="368.54,-811.18 357.95,-811.07 366.16,-817.77 368.54,-811.18"/>
</g>
<!-- unstable -->
<g id="node5" class="node">
<title>unstable</title>
<polygon fill="none" stroke="black" points="619,-811 395,-811 395,-773 619,-773 619,-811"/>
<text text-anchor="middle" x="507" y="-795.8" font-family="Times,serif" font-size="14.00">Implementations of Unstable</text>
<text text-anchor="middle" x="507" y="-780.8" font-family="Times,serif" font-size="14.00">and Proprietary Features</text>
</g>
<!-- implementation&#45;&gt;unstable -->
<g id="edge4" class="edge">
<title>implementation&#45;&gt;unstable</title>
<path fill="none" stroke="black" d="M507,-847.94C507,-839.99 507,-830.31 507,-821.31"/>
<polygon fill="black" stroke="black" points="510.5,-821.2 507,-811.2 503.5,-821.2 510.5,-821.2"/>
</g>
<!-- cr -->
<g id="node6" class="node">
<title>cr</title>
<polygon fill="none" stroke="black" points="792.5,-811 637.5,-811 637.5,-773 792.5,-773 792.5,-811"/>
<text text-anchor="middle" x="715" y="-795.8" font-family="Times,serif" font-size="14.00">Implementations of</text>
<text text-anchor="middle" x="715" y="-780.8" font-family="Times,serif" font-size="14.00">CR&#45;level Features</text>
</g>
<!-- implementation&#45;&gt;cr -->
<g id="edge5" class="edge">
<title>implementation&#45;&gt;cr</title>
<path fill="none" stroke="black" d="M556.29,-847.94C585.24,-837.92 622.08,-825.16 652.98,-814.47"/>
<polygon fill="black" stroke="black" points="654.49,-817.65 662.79,-811.07 652.2,-811.04 654.49,-817.65"/>
</g>
<!-- not interoperable -->
<g id="node14" class="node">
<title>not interoperable</title>
<ellipse fill="none" stroke="black" cx="279" cy="-645" rx="91.78" ry="18"/>
<text text-anchor="middle" x="279" y="-641.3" font-family="Times,serif" font-size="14.00">not interoperable</text>
</g>
<!-- unstable&#45;&gt;not interoperable -->
<g id="edge6" class="edge">
<title>unstable&#45;&gt;not interoperable</title>
<path fill="none" stroke="black" d="M478.58,-772.93C436.62,-746.24 358.18,-696.36 313.15,-667.72"/>
<polygon fill="black" stroke="black" points="314.92,-664.7 304.61,-662.29 311.17,-670.6 314.92,-664.7"/>
</g>
<!-- proprietary extension -->
<g id="node15" class="node">
<title>proprietary extension</title>
<ellipse fill="none" stroke="black" cx="507" cy="-645" rx="111.58" ry="18"/>
<text text-anchor="middle" x="507" y="-641.3" font-family="Times,serif" font-size="14.00">proprietary extension</text>
</g>
<!-- unstable&#45;&gt;proprietary extension -->
<g id="edge8" class="edge">
<title>unstable&#45;&gt;proprietary extension</title>
<path fill="none" stroke="black" d="M507,-772.93C507,-748.02 507,-702.92 507,-673.73"/>
<polygon fill="black" stroke="black" points="510.5,-673.39 507,-663.39 503.5,-673.39 510.5,-673.39"/>
</g>
<!-- three UAs implement the feature -->
<g id="node17" class="node">
<title>three UAs implement the feature</title>
<ellipse fill="none" stroke="black" cx="725" cy="-718" rx="164.37" ry="18"/>
<text text-anchor="middle" x="725" y="-714.3" font-family="Times,serif" font-size="14.00">three UAs implement the feature</text>
</g>
<!-- unstable&#45;&gt;three UAs implement the feature -->
<g id="edge10" class="edge">
<title>unstable&#45;&gt;three UAs implement the feature</title>
<path fill="none" stroke="black" d="M561.73,-772.92C593.5,-762.43 633.54,-749.21 666.02,-738.48"/>
<polygon fill="black" stroke="black" points="667.44,-741.7 675.83,-735.24 665.24,-735.05 667.44,-741.7"/>
</g>
<!-- experimental -->
<g id="node7" class="node">
<title>experimental</title>
<polygon fill="none" stroke="black" points="318.5,-517 151.5,-517 151.5,-479 318.5,-479 318.5,-517"/>
<text text-anchor="middle" x="235" y="-501.8" font-family="Times,serif" font-size="14.00">Experimentation and</text>
<text text-anchor="middle" x="235" y="-486.8" font-family="Times,serif" font-size="14.00">Unstable Features</text>
</g>
<!-- experimental_reasoning -->
<g id="node10" class="node">
<title>experimental_reasoning</title>
<text text-anchor="middle" x="169" y="-426.8" font-family="Times,serif" font-size="14.00">&quot;We want to allow both authors </text>
<text text-anchor="middle" x="169" y="-411.8" font-family="Times,serif" font-size="14.00"> and implementors to experiment </text>
<text text-anchor="middle" x="169" y="-396.8" font-family="Times,serif" font-size="14.00"> with the feature and give feedback, </text>
<text text-anchor="middle" x="169" y="-381.8" font-family="Times,serif" font-size="14.00"> but prevent authors from relying </text>
<text text-anchor="middle" x="169" y="-366.8" font-family="Times,serif" font-size="14.00"> on them in production websites </text>
<text text-anchor="middle" x="169" y="-351.8" font-family="Times,serif" font-size="14.00"> and thereby accidentally &#39;locking in&#39; </text>
<text text-anchor="middle" x="169" y="-336.8" font-family="Times,serif" font-size="14.00"> (through content dependence) certain </text>
<text text-anchor="middle" x="169" y="-321.8" font-family="Times,serif" font-size="14.00"> syntax or behavior that might change later.&quot;</text>
</g>
<!-- experimental&#45;&gt;experimental_reasoning -->
<g id="edge14" class="edge">
<title>experimental:s&#45;&gt;experimental_reasoning</title>
<path fill="none" stroke="white" d="M235,-479C235,-466.1 231.13,-453.59 225.26,-442.03"/>
</g>
<!-- proprietary -->
<g id="node8" class="node">
<title>proprietary</title>
<polygon fill="none" stroke="black" points="612.5,-517 401.5,-517 401.5,-479 612.5,-479 612.5,-517"/>
<text text-anchor="middle" x="507" y="-501.8" font-family="Times,serif" font-size="14.00">Proprietary and</text>
<text text-anchor="middle" x="507" y="-486.8" font-family="Times,serif" font-size="14.00">Non&#45;standardized Features</text>
</g>
<!-- proprietary_reasoning -->
<g id="node11" class="node">
<title>proprietary_reasoning</title>
<text text-anchor="middle" x="507" y="-396.8" font-family="Times,serif" font-size="14.00">&quot;The prefixing requirement allows </text>
<text text-anchor="middle" x="507" y="-381.8" font-family="Times,serif" font-size="14.00"> shipping specialized features in closed </text>
<text text-anchor="middle" x="507" y="-366.8" font-family="Times,serif" font-size="14.00"> environments without conflicting with </text>
<text text-anchor="middle" x="507" y="-351.8" font-family="Times,serif" font-size="14.00"> future additions to standard CSS.&quot;</text>
</g>
<!-- proprietary&#45;&gt;proprietary_reasoning -->
<g id="edge15" class="edge">
<title>proprietary:s&#45;&gt;proprietary_reasoning</title>
<path fill="none" stroke="white" d="M507,-479C507,-456.78 507,-431.78 507,-412.33"/>
</g>
<!-- pressure -->
<g id="node9" class="node">
<title>pressure</title>
<polygon fill="none" stroke="black" points="893.5,-517 726.5,-517 726.5,-479 893.5,-479 893.5,-517"/>
<text text-anchor="middle" x="810" y="-501.8" font-family="Times,serif" font-size="14.00">Market Pressure and</text>
<text text-anchor="middle" x="810" y="-486.8" font-family="Times,serif" font-size="14.00">De Facto Standards</text>
</g>
<!-- pressure_reasoning -->
<g id="node12" class="node">
<title>pressure_reasoning</title>
<text text-anchor="middle" x="812" y="-411.8" font-family="Times,serif" font-size="14.00">&quot;If a feature is sufficiently </text>
<text text-anchor="middle" x="812" y="-396.8" font-family="Times,serif" font-size="14.00">popular that three or more</text>
<text text-anchor="middle" x="812" y="-381.8" font-family="Times,serif" font-size="14.00">browsers have implemented it</text>
<text text-anchor="middle" x="812" y="-366.8" font-family="Times,serif" font-size="14.00">before it’s finished standardization,</text>
<text text-anchor="middle" x="812" y="-351.8" font-family="Times,serif" font-size="14.00"> this clause allows releasing </text>
<text text-anchor="middle" x="812" y="-336.8" font-family="Times,serif" font-size="14.00"> the pressure to ship.&quot;</text>
</g>
<!-- pressure&#45;&gt;pressure_reasoning -->
<g id="edge16" class="edge">
<title>pressure:s&#45;&gt;pressure_reasoning</title>
<path fill="none" stroke="white" d="M810,-479C810,-462.07 810.29,-443.53 810.65,-427.06"/>
</g>
<!-- controlled environments only -->
<g id="node19" class="node">
<title>controlled environments only</title>
<ellipse fill="none" stroke="black" cx="169" cy="-259" rx="146.77" ry="18"/>
<text text-anchor="middle" x="169" y="-255.3" font-family="Times,serif" font-size="14.00">controlled environments only</text>
</g>
<!-- experimental_reasoning&#45;&gt;controlled environments only -->
<g id="edge17" class="edge">
<title>experimental_reasoning:s&#45;&gt;controlled environments only</title>
<path fill="none" stroke="black" d="M169,-314C169,-305.3 169,-295.81 169,-287.25"/>
<polygon fill="black" stroke="black" points="172.5,-287.02 169,-277.02 165.5,-287.02 172.5,-287.02"/>
</g>
<!-- prefixed&#45;only -->
<g id="node20" class="node">
<title>prefixed&#45;only</title>
<ellipse fill="none" stroke="black" cx="507" cy="-259" rx="71.49" ry="18"/>
<text text-anchor="middle" x="507" y="-255.3" font-family="Times,serif" font-size="14.00">prefixed&#45;only</text>
</g>
<!-- proprietary_reasoning&#45;&gt;prefixed&#45;only -->
<g id="edge18" class="edge">
<title>proprietary_reasoning:s&#45;&gt;prefixed&#45;only</title>
<path fill="none" stroke="black" d="M507,-343C507,-324.5 507,-303.68 507,-287.52"/>
<polygon fill="black" stroke="black" points="510.5,-287.17 507,-277.17 503.5,-287.17 510.5,-287.17"/>
</g>
<!-- unprefixed -->
<g id="node21" class="node">
<title>unprefixed</title>
<ellipse fill="none" stroke="black" cx="812" cy="-259" rx="60.39" ry="18"/>
<text text-anchor="middle" x="812" y="-255.3" font-family="Times,serif" font-size="14.00">unprefixed</text>
</g>
<!-- pressure_reasoning&#45;&gt;unprefixed -->
<g id="edge19" class="edge">
<title>pressure_reasoning:s&#45;&gt;unprefixed</title>
<path fill="none" stroke="black" d="M812,-328C812,-314.58 812,-299.66 812,-287.23"/>
<polygon fill="black" stroke="black" points="815.5,-287.05 812,-277.05 808.5,-287.05 815.5,-287.05"/>
</g>
<!-- cssregions -->
<g id="node13" class="node">
<title>cssregions</title>
<g id="a_node13"><a xlink:href="https://www.w3.org/TR/css-regions-1/#experimental" xlink:title="CSS Regions">
<polygon fill="none" stroke="fuchsia" points="808.06,-160.54 808.06,-175.46 764.09,-186 701.91,-186 657.94,-175.46 657.94,-160.54 701.91,-150 764.09,-150 808.06,-160.54"/>
<polygon fill="none" stroke="fuchsia" points="812.05,-157.39 812.05,-178.61 764.56,-190 701.44,-190 653.95,-178.61 653.95,-157.39 701.44,-146 764.56,-146 812.05,-157.39"/>
<text text-anchor="middle" x="733" y="-164.3" font-family="Times,serif" font-size="14.00" fill="fuchsia">CSS Regions</text>
</a>
</g>
</g>
<!-- WebKit -->
<g id="node22" class="node">
<title>WebKit</title>
<ellipse fill="none" stroke="black" cx="733" cy="-91" rx="44.39" ry="18"/>
<text text-anchor="middle" x="733" y="-87.3" font-family="Times,serif" font-size="14.00">WebKit</text>
</g>
<!-- cssregions&#45;&gt;WebKit -->
<g id="edge21" class="edge">
<title>cssregions&#45;&gt;WebKit</title>
<path fill="none" stroke="black" d="M733,-145.71C733,-137.46 733,-127.91 733,-119.17"/>
<polygon fill="black" stroke="black" points="736.5,-119.06 733,-109.06 729.5,-119.06 736.5,-119.06"/>
</g>
<!-- not interoperable&#45;&gt;experimental -->
<g id="edge7" class="edge">
<title>not interoperable&#45;&gt;experimental</title>
<path fill="none" stroke="black" d="M273.78,-626.8C266.29,-602.1 252.4,-556.33 243.44,-526.8"/>
<polygon fill="black" stroke="black" points="246.74,-525.64 240.49,-517.09 240.04,-527.67 246.74,-525.64"/>
</g>
<!-- proprietary extension&#45;&gt;proprietary -->
<g id="edge9" class="edge">
<title>proprietary extension&#45;&gt;proprietary</title>
<path fill="none" stroke="black" d="M507,-626.8C507,-602.21 507,-556.73 507,-527.19"/>
<polygon fill="black" stroke="black" points="510.5,-527.09 507,-517.09 503.5,-527.09 510.5,-527.09"/>
</g>
<!-- rough interoperability -->
<g id="node16" class="node">
<title>rough interoperability</title>
<ellipse fill="none" stroke="black" cx="781" cy="-645" rx="113.98" ry="18"/>
<text text-anchor="middle" x="781" y="-641.3" font-family="Times,serif" font-size="14.00">rough interoperability</text>
</g>
<!-- CSSWG consensus for support -->
<g id="node18" class="node">
<title>CSSWG consensus for support</title>
<ellipse fill="none" stroke="black" cx="793" cy="-572" rx="152.17" ry="18"/>
<text text-anchor="middle" x="793" y="-568.3" font-family="Times,serif" font-size="14.00">CSSWG consensus for support</text>
</g>
<!-- rough interoperability&#45;&gt;CSSWG consensus for support -->
<g id="edge12" class="edge">
<title>rough interoperability&#45;&gt;CSSWG consensus for support</title>
<path fill="none" stroke="black" d="M783.9,-626.81C785.26,-618.79 786.91,-609.05 788.42,-600.07"/>
<polygon fill="black" stroke="black" points="791.91,-600.47 790.12,-590.03 785,-599.31 791.91,-600.47"/>
</g>
<!-- three UAs implement the feature&#45;&gt;rough interoperability -->
<g id="edge11" class="edge">
<title>three UAs implement the feature&#45;&gt;rough interoperability</title>
<path fill="none" stroke="black" d="M738.56,-699.81C745.37,-691.18 753.75,-680.56 761.25,-671.03"/>
<polygon fill="black" stroke="black" points="764.12,-673.05 767.57,-663.03 758.63,-668.71 764.12,-673.05"/>
</g>
<!-- CSSWG consensus for support&#45;&gt;pressure -->
<g id="edge13" class="edge">
<title>CSSWG consensus for support&#45;&gt;pressure</title>
<path fill="none" stroke="black" d="M797.03,-553.94C798.93,-545.9 801.24,-536.1 803.38,-527.02"/>
<polygon fill="black" stroke="black" points="806.81,-527.74 805.7,-517.2 800,-526.13 806.81,-527.74"/>
</g>
<!-- unprefixed&#45;&gt;cssregions -->
<g id="edge20" class="edge">
<title>unprefixed&#45;&gt;cssregions:e</title>
<path fill="none" stroke="black" d="M818.86,-241.07C827.16,-218.67 838.21,-180.81 822.81,-170.6"/>
<polygon fill="black" stroke="black" points="823.56,-167.18 813,-168 821.77,-173.94 823.56,-167.18"/>
<text text-anchor="middle" x="835.5" y="-211.8" font-family="Times,serif" font-size="14.00"> ?</text>
</g>
<!-- Chrome -->
<g id="node23" class="node">
<title>Chrome</title>
<polygon fill="none" stroke="black" points="471.63,-36 360.86,-36 332.37,0 443.14,0 471.63,-36"/>
<text text-anchor="middle" x="402" y="-14.3" font-family="Times,serif" font-size="14.00">Chrome</text>
</g>
<!-- WebKit&#45;&gt;Chrome -->
<g id="edge22" class="edge">
<title>WebKit&#45;&gt;Chrome</title>
<path fill="none" stroke="black" d="M694.84,-81.91C645.3,-71.39 556.17,-52.43 480,-36 479.9,-35.98 479.8,-35.96 479.69,-35.93"/>
<polygon fill="black" stroke="black" points="480.57,-32.54 470.06,-33.85 479.1,-39.39 480.57,-32.54"/>
</g>
<!-- Chromium -->
<g id="node24" class="node">
<title>Chromium</title>
<polygon fill="none" stroke="black" points="664.84,-36 525.11,-36 489.16,0 628.89,0 664.84,-36"/>
<text text-anchor="middle" x="577" y="-14.3" font-family="Times,serif" font-size="14.00">Chromium</text>
</g>
<!-- WebKit&#45;&gt;Chromium -->
<g id="edge23" class="edge">
<title>WebKit&#45;&gt;Chromium</title>
<path fill="none" stroke="black" d="M704.75,-77.14C682.23,-66.89 650.21,-52.32 623.86,-40.33"/>
<polygon fill="black" stroke="black" points="624.99,-37 614.44,-36.04 622.09,-43.37 624.99,-37"/>
</g>
<!-- Edge -->
<g id="node25" class="node">
<title>Edge</title>
<polygon fill="none" stroke="black" points="783.51,-36 703.16,-36 682.49,0 762.84,0 783.51,-36"/>
<text text-anchor="middle" x="733" y="-14.3" font-family="Times,serif" font-size="14.00">Edge</text>
</g>
<!-- WebKit&#45;&gt;Edge -->
<g id="edge24" class="edge">
<title>WebKit&#45;&gt;Edge</title>
<path fill="none" stroke="black" d="M733,-72.81C733,-64.79 733,-55.05 733,-46.07"/>
<polygon fill="black" stroke="black" points="736.5,-46.03 733,-36.03 729.5,-46.03 736.5,-46.03"/>
</g>
<!-- Safari -->
<g id="node26" class="node">
<title>Safari</title>
<polygon fill="none" stroke="black" points="914.45,-36 824.65,-36 801.55,0 891.35,0 914.45,-36"/>
<text text-anchor="middle" x="858" y="-14.3" font-family="Times,serif" font-size="14.00">Safari</text>
</g>
<!-- WebKit&#45;&gt;Safari -->
<g id="edge25" class="edge">
<title>WebKit&#45;&gt;Safari</title>
<path fill="none" stroke="black" d="M757.7,-75.97C775.22,-66.02 799.09,-52.46 819.15,-41.07"/>
<polygon fill="black" stroke="black" points="821.1,-43.99 828.06,-36 817.64,-37.9 821.1,-43.99"/>
</g>
<!-- OSPKit -->
<g id="node27" class="node">
<title>OSPKit</title>
<polygon fill="none" stroke="blue" points="1061.6,-36 958.84,-36 932.4,0 1035.16,0 1061.6,-36"/>
<text text-anchor="middle" x="997" y="-14.3" font-family="Times,serif" font-size="14.00" fill="blue">OSPKit</text>
</g>
<!-- WebKit&#45;&gt;OSPKit -->
<g id="edge26" class="edge">
<title>WebKit&#45;&gt;OSPKit</title>
<path fill="none" stroke="black" d="M768.88,-80.35C814.31,-68.13 892.91,-46.99 944.94,-33"/>
<polygon fill="black" stroke="black" points="945.9,-36.37 954.65,-30.39 944.08,-29.61 945.9,-36.37"/>
</g>
</g>
</svg>
