<?xml version="1.0" encoding="UTF-8" standalone="no"?>
<!DOCTYPE svg PUBLIC "-//W3C//DTD SVG 1.1//EN"
 "http://www.w3.org/Graphics/SVG/1.1/DTD/svg11.dtd">
<!-- Generated by graphviz version 2.43.0 (0)
 -->
<!-- Title: %3 Pages: 1 -->
<svg width="1937pt" height="484pt"
 viewBox="0.00 0.00 1936.69 484.00" xmlns="http://www.w3.org/2000/svg" xmlns:xlink="http://www.w3.org/1999/xlink">
<g id="graph0" class="graph" transform="scale(1 1) rotate(0) translate(4 480)">
<title>%3</title>
<polygon fill="white" stroke="transparent" points="-4,4 -4,-480 1932.69,-480 1932.69,4 -4,4"/>
<!-- coherence -->
<g id="node1" class="node">
<title>coherence</title>
<text text-anchor="middle" x="712.34" y="-90.3" font-family="Times,serif" font-size="14.00">coherence</text>
</g>
<!-- direction -->
<g id="node24" class="node">
<title>direction</title>
</g>
<!-- coherence&#45;&gt;direction -->
<g id="edge34" class="edge">
<title>coherence&#45;&gt;direction</title>
<path fill="none" stroke="black" d="M755.12,-75.94C758.57,-74.59 762.01,-73.27 765.34,-72 802.14,-57.99 844.45,-42.61 873.83,-32.04"/>
<polygon fill="black" stroke="black" points="875.04,-35.32 883.27,-28.65 872.68,-28.74 875.04,-35.32"/>
</g>
<!-- speed -->
<g id="node2" class="node">
<title>speed</title>
<text text-anchor="middle" x="804.34" y="-90.3" font-family="Times,serif" font-size="14.00">speed</text>
</g>
<!-- speed&#45;&gt;direction -->
<g id="edge35" class="edge">
<title>speed&#45;&gt;direction</title>
<path fill="none" stroke="black" d="M828.93,-75.84C843.38,-65.75 861.83,-52.87 877.51,-41.92"/>
<polygon fill="black" stroke="black" points="879.7,-44.66 885.89,-36.07 875.69,-38.92 879.7,-44.66"/>
</g>
<!-- mobile -->
<g id="node3" class="node">
<title>mobile</title>
<text text-anchor="middle" x="910.34" y="-90.3" font-family="Times,serif" font-size="14.00">use on mobile</text>
</g>
<!-- mobile&#45;&gt;direction -->
<g id="edge36" class="edge">
<title>mobile&#45;&gt;direction</title>
<path fill="none" stroke="black" d="M910.34,-75.84C910.34,-67.06 910.34,-56.16 910.34,-46.27"/>
<polygon fill="black" stroke="black" points="913.84,-46.07 910.34,-36.07 906.84,-46.07 913.84,-46.07"/>
</g>
<!-- streamlining -->
<g id="node4" class="node">
<title>streamlining</title>
<text text-anchor="middle" x="1040.34" y="-90.3" font-family="Times,serif" font-size="14.00">streamlining</text>
</g>
<!-- streamlining&#45;&gt;direction -->
<g id="edge37" class="edge">
<title>streamlining&#45;&gt;direction</title>
<path fill="none" stroke="black" d="M1010.19,-75.84C991.2,-65.03 966.57,-51.01 946.53,-39.6"/>
<polygon fill="black" stroke="black" points="948.1,-36.46 937.68,-34.56 944.63,-42.55 948.1,-36.46"/>
</g>
<!-- cssregions -->
<g id="node5" class="node">
<title>cssregions</title>
<polygon fill="none" stroke="fuchsia" points="1338.4,-86.54 1338.4,-101.46 1294.43,-112 1232.25,-112 1188.28,-101.46 1188.28,-86.54 1232.25,-76 1294.43,-76 1338.4,-86.54"/>
<polygon fill="none" stroke="fuchsia" points="1342.39,-83.39 1342.39,-104.61 1294.91,-116 1231.78,-116 1184.3,-104.61 1184.3,-83.39 1231.78,-72 1294.91,-72 1342.39,-83.39"/>
<text text-anchor="middle" x="1263.34" y="-90.3" font-family="Times,serif" font-size="14.00" fill="fuchsia">CSS Regions</text>
</g>
<!-- google -->
<g id="node6" class="node">
<title>google</title>
<ellipse fill="none" stroke="black" cx="64.34" cy="-242" rx="64.19" ry="18"/>
<text text-anchor="middle" x="64.34" y="-238.3" font-family="Times,serif" font-size="14.00">Google LLC</text>
</g>
<!-- agenda -->
<g id="node22" class="node">
<title>agenda</title>
<polygon fill="none" stroke="black" points="910.34,-188 836.78,-170 910.34,-152 983.91,-170 910.34,-188"/>
<text text-anchor="middle" x="910.34" y="-166.3" font-family="Times,serif" font-size="14.00">agenda&#39;s</text>
</g>
<!-- google&#45;&gt;agenda -->
<g id="edge16" class="edge">
<title>google&#45;&gt;agenda</title>
<path fill="none" stroke="black" d="M110.32,-229.26C119.55,-227.24 129.22,-225.35 138.34,-224 391.8,-186.42 696.11,-175.42 834.81,-172.25"/>
<polygon fill="black" stroke="black" points="834.98,-175.75 844.9,-172.03 834.83,-168.75 834.98,-175.75"/>
</g>
<!-- apple -->
<g id="node7" class="node">
<title>apple</title>
<ellipse fill="none" stroke="black" cx="204.34" cy="-242" rx="57.39" ry="18"/>
<text text-anchor="middle" x="204.34" y="-238.3" font-family="Times,serif" font-size="14.00">Apple Inc.</text>
</g>
<!-- apple&#45;&gt;agenda -->
<g id="edge17" class="edge">
<title>apple&#45;&gt;agenda</title>
<path fill="none" stroke="black" d="M245.31,-229.3C253.54,-227.28 262.18,-225.38 270.34,-224 474.1,-189.58 718.3,-177.22 837.57,-173.02"/>
<polygon fill="black" stroke="black" points="837.8,-176.51 847.68,-172.67 837.56,-169.51 837.8,-176.51"/>
</g>
<!-- adobe -->
<g id="node8" class="node">
<title>adobe</title>
<ellipse fill="none" stroke="black" cx="1890.34" cy="-242" rx="38.19" ry="18"/>
<text text-anchor="middle" x="1890.34" y="-238.3" font-family="Times,serif" font-size="14.00">adobe</text>
</g>
<!-- microsoft -->
<g id="node9" class="node">
<title>microsoft</title>
<ellipse fill="none" stroke="black" cx="393.34" cy="-242" rx="113.98" ry="18"/>
<text text-anchor="middle" x="393.34" y="-238.3" font-family="Times,serif" font-size="14.00">Microsoft Corporation</text>
</g>
<!-- microsoft&#45;&gt;agenda -->
<g id="edge18" class="edge">
<title>microsoft&#45;&gt;agenda</title>
<path fill="none" stroke="black" d="M475.71,-229.57C489.28,-227.7 503.21,-225.79 516.34,-224 637.01,-207.55 778.52,-188.59 854.81,-178.41"/>
<polygon fill="black" stroke="black" points="855.68,-181.82 865.13,-177.03 854.76,-174.88 855.68,-181.82"/>
</g>
<!-- Alibaba -->
<g id="node10" class="node">
<title>Alibaba</title>
<ellipse fill="none" stroke="black" cx="570.34" cy="-242" rx="45.49" ry="18"/>
<text text-anchor="middle" x="570.34" y="-238.3" font-family="Times,serif" font-size="14.00">Alibaba</text>
</g>
<!-- Alibaba&#45;&gt;agenda -->
<g id="edge19" class="edge">
<title>Alibaba&#45;&gt;agenda</title>
<path fill="none" stroke="black" d="M603.87,-229.75C610.61,-227.69 617.67,-225.66 624.34,-224 704.55,-204.02 799.1,-187.93 856.87,-178.91"/>
<polygon fill="black" stroke="black" points="857.52,-182.35 866.87,-177.37 856.45,-175.44 857.52,-182.35"/>
</g>
<!-- eyeo -->
<g id="node11" class="node">
<title>eyeo</title>
<ellipse fill="none" stroke="black" cx="698.34" cy="-242" rx="64.99" ry="18"/>
<text text-anchor="middle" x="698.34" y="-238.3" font-family="Times,serif" font-size="14.00">eyeo GmbH</text>
</g>
<!-- eyeo&#45;&gt;agenda -->
<g id="edge20" class="edge">
<title>eyeo&#45;&gt;agenda</title>
<path fill="none" stroke="black" d="M738.72,-227.67C776.77,-215.11 833.41,-196.4 871.09,-183.96"/>
<polygon fill="black" stroke="black" points="872.31,-187.24 880.71,-180.79 870.11,-180.6 872.31,-187.24"/>
</g>
<!-- more1 -->
<g id="node12" class="node">
<title>more1</title>
<ellipse fill="none" stroke="black" cx="808.34" cy="-242" rx="27" ry="18"/>
<text text-anchor="middle" x="808.34" y="-238.3" font-family="Times,serif" font-size="14.00">...</text>
</g>
<!-- more1&#45;&gt;agenda -->
<g id="edge21" class="edge">
<title>more1&#45;&gt;agenda</title>
<path fill="none" stroke="black" d="M826.58,-228.49C842.44,-217.6 865.62,-201.69 883.58,-189.37"/>
<polygon fill="black" stroke="black" points="885.66,-192.19 891.92,-183.64 881.7,-186.41 885.66,-192.19"/>
</g>
<!-- Monotype -->
<g id="node13" class="node">
<title>Monotype</title>
<ellipse fill="none" stroke="black" cx="910.34" cy="-242" rx="57.39" ry="18"/>
<text text-anchor="middle" x="910.34" y="-238.3" font-family="Times,serif" font-size="14.00">Monotype</text>
</g>
<!-- Monotype&#45;&gt;agenda -->
<g id="edge22" class="edge">
<title>Monotype&#45;&gt;agenda</title>
<path fill="none" stroke="black" d="M910.34,-223.7C910.34,-215.98 910.34,-206.71 910.34,-198.11"/>
<polygon fill="black" stroke="black" points="913.84,-198.1 910.34,-188.1 906.84,-198.1 913.84,-198.1"/>
</g>
<!-- Igalia -->
<g id="node14" class="node">
<title>Igalia</title>
<ellipse fill="none" stroke="black" cx="1022.34" cy="-242" rx="36.29" ry="18"/>
<text text-anchor="middle" x="1022.34" y="-238.3" font-family="Times,serif" font-size="14.00">Igalia</text>
</g>
<!-- Igalia&#45;&gt;agenda -->
<g id="edge23" class="edge">
<title>Igalia&#45;&gt;agenda</title>
<path fill="none" stroke="black" d="M1000.75,-227.5C983.08,-216.46 957.95,-200.75 938.67,-188.7"/>
<polygon fill="black" stroke="black" points="940.33,-185.62 930,-183.28 936.62,-191.55 940.33,-185.62"/>
</g>
<!-- samsung -->
<g id="node15" class="node">
<title>samsung</title>
<ellipse fill="none" stroke="black" cx="1222.34" cy="-242" rx="145.67" ry="18"/>
<text text-anchor="middle" x="1222.34" y="-238.3" font-family="Times,serif" font-size="14.00">Samsung Electronics Co. Ltd</text>
</g>
<!-- samsung&#45;&gt;agenda -->
<g id="edge24" class="edge">
<title>samsung&#45;&gt;agenda</title>
<path fill="none" stroke="black" d="M1155.41,-225.98C1095.65,-212.58 1009.67,-193.28 957.04,-181.48"/>
<polygon fill="black" stroke="black" points="957.5,-177.99 946.98,-179.22 955.97,-184.82 957.5,-177.99"/>
</g>
<!-- BBC -->
<g id="node16" class="node">
<title>BBC</title>
<ellipse fill="none" stroke="black" cx="1417.34" cy="-242" rx="31.4" ry="18"/>
<text text-anchor="middle" x="1417.34" y="-238.3" font-family="Times,serif" font-size="14.00">BBC</text>
</g>
<!-- BBC&#45;&gt;agenda -->
<g id="edge25" class="edge">
<title>BBC&#45;&gt;agenda</title>
<path fill="none" stroke="black" d="M1394.05,-229.77C1388.67,-227.55 1382.89,-225.46 1377.34,-224 1241.58,-188.26 1077.37,-176.62 984.27,-172.83"/>
<polygon fill="black" stroke="black" points="984.23,-169.33 974.1,-172.44 983.96,-176.32 984.23,-169.33"/>
</g>
<!-- LG -->
<g id="node17" class="node">
<title>LG</title>
<ellipse fill="none" stroke="black" cx="1493.34" cy="-242" rx="27" ry="18"/>
<text text-anchor="middle" x="1493.34" y="-238.3" font-family="Times,serif" font-size="14.00">LG</text>
</g>
<!-- LG&#45;&gt;agenda -->
<g id="edge26" class="edge">
<title>LG&#45;&gt;agenda</title>
<path fill="none" stroke="black" d="M1472.87,-229.85C1467.91,-227.57 1462.54,-225.43 1457.34,-224 1297.4,-179.93 1102.36,-171.27 993.7,-170.26"/>
<polygon fill="black" stroke="black" points="993.48,-166.76 983.46,-170.18 993.43,-173.76 993.48,-166.76"/>
</g>
<!-- w3c -->
<g id="node18" class="node">
<title>w3c</title>
<polygon fill="none" stroke="black" points="937.34,-476 883.34,-476 883.34,-440 937.34,-440 937.34,-476"/>
<text text-anchor="middle" x="910.34" y="-454.3" font-family="Times,serif" font-size="14.00">W3C</text>
</g>
<!-- motto -->
<g id="node20" class="node">
<title>motto</title>
<text text-anchor="middle" x="910.34" y="-382.3" font-family="Times,serif" font-size="14.00">strict separation between content and form</text>
</g>
<!-- w3c&#45;&gt;motto -->
<g id="edge1" class="edge">
<title>w3c&#45;&gt;motto</title>
<path fill="none" stroke="black" d="M910.34,-439.7C910.34,-431.98 910.34,-422.71 910.34,-414.11"/>
<polygon fill="black" stroke="black" points="913.84,-414.1 910.34,-404.1 906.84,-414.1 913.84,-414.1"/>
</g>
<!-- csswg -->
<g id="node19" class="node">
<title>csswg</title>
<g id="a_node19"><a xlink:href="https://www.w3.org/Style/CSS/members/" xlink:title="CSSWG">
<ellipse fill="none" stroke="black" cx="910.34" cy="-314" rx="46.29" ry="18"/>
<text text-anchor="middle" x="910.34" y="-310.3" font-family="Times,serif" font-size="14.00">CSSWG</text>
</a>
</g>
</g>
<!-- csswg&#45;&gt;google -->
<g id="edge3" class="edge">
<title>csswg&#45;&gt;google</title>
<path fill="none" stroke="black" d="M863.95,-312.35C743.55,-310.13 411.43,-300.49 138.34,-260 132.5,-259.13 126.43,-258.05 120.39,-256.85"/>
<polygon fill="black" stroke="black" points="120.82,-253.36 110.32,-254.74 119.39,-260.21 120.82,-253.36"/>
</g>
<!-- csswg&#45;&gt;apple -->
<g id="edge4" class="edge">
<title>csswg&#45;&gt;apple</title>
<path fill="none" stroke="black" d="M864.22,-311.86C758.5,-308.66 490.76,-297.24 270.34,-260 265.37,-259.16 260.22,-258.13 255.09,-256.99"/>
<polygon fill="black" stroke="black" points="255.84,-253.57 245.31,-254.7 254.24,-260.39 255.84,-253.57"/>
</g>
<!-- csswg&#45;&gt;microsoft -->
<g id="edge5" class="edge">
<title>csswg&#45;&gt;microsoft</title>
<path fill="none" stroke="black" d="M867.49,-307.29C795.11,-297.63 644.06,-277.42 516.34,-260 506.39,-258.64 495.98,-257.22 485.62,-255.79"/>
<polygon fill="black" stroke="black" points="486.09,-252.32 475.71,-254.43 485.14,-259.26 486.09,-252.32"/>
</g>
<!-- csswg&#45;&gt;Alibaba -->
<g id="edge6" class="edge">
<title>csswg&#45;&gt;Alibaba</title>
<path fill="none" stroke="black" d="M867.84,-306.78C811.67,-298.19 709.85,-281.3 624.34,-260 620.8,-259.12 617.14,-258.13 613.48,-257.09"/>
<polygon fill="black" stroke="black" points="614.45,-253.73 603.87,-254.25 612.46,-260.44 614.45,-253.73"/>
</g>
<!-- csswg&#45;&gt;eyeo -->
<g id="edge7" class="edge">
<title>csswg&#45;&gt;eyeo</title>
<path fill="none" stroke="black" d="M876.28,-301.75C841.65,-290.32 787.61,-272.47 748.16,-259.45"/>
<polygon fill="black" stroke="black" points="749.06,-256.06 738.47,-256.25 746.87,-262.71 749.06,-256.06"/>
</g>
<!-- csswg&#45;&gt;more1 -->
<g id="edge8" class="edge">
<title>csswg&#45;&gt;more1</title>
<path fill="none" stroke="black" d="M888.46,-297.98C872.71,-287.17 851.39,-272.54 834.7,-261.08"/>
<polygon fill="black" stroke="black" points="836.67,-258.2 826.45,-255.42 832.71,-263.97 836.67,-258.2"/>
</g>
<!-- csswg&#45;&gt;Monotype -->
<g id="edge9" class="edge">
<title>csswg&#45;&gt;Monotype</title>
<path fill="none" stroke="black" d="M910.34,-295.7C910.34,-287.98 910.34,-278.71 910.34,-270.11"/>
<polygon fill="black" stroke="black" points="913.84,-270.1 910.34,-260.1 906.84,-270.1 913.84,-270.1"/>
</g>
<!-- csswg&#45;&gt;Igalia -->
<g id="edge10" class="edge">
<title>csswg&#45;&gt;Igalia</title>
<path fill="none" stroke="black" d="M933.82,-298.33C950.69,-287.78 973.58,-273.48 991.86,-262.05"/>
<polygon fill="black" stroke="black" points="993.79,-264.97 1000.42,-256.7 990.08,-259.04 993.79,-264.97"/>
</g>
<!-- csswg&#45;&gt;samsung -->
<g id="edge11" class="edge">
<title>csswg&#45;&gt;samsung</title>
<path fill="none" stroke="black" d="M949.23,-304.28C998.15,-293.3 1083.28,-274.2 1145.53,-260.23"/>
<polygon fill="black" stroke="black" points="1146.32,-263.64 1155.31,-258.04 1144.79,-256.81 1146.32,-263.64"/>
</g>
<!-- csswg&#45;&gt;BBC -->
<g id="edge12" class="edge">
<title>csswg&#45;&gt;BBC</title>
<path fill="none" stroke="black" d="M956.56,-312.15C1041.34,-309.63 1226.83,-299.63 1377.34,-260 1379.68,-259.38 1382.06,-258.66 1384.44,-257.85"/>
<polygon fill="black" stroke="black" points="1385.93,-261.03 1394.05,-254.23 1383.46,-254.48 1385.93,-261.03"/>
</g>
<!-- csswg&#45;&gt;LG -->
<g id="edge13" class="edge">
<title>csswg&#45;&gt;LG</title>
<path fill="none" stroke="black" d="M956.69,-313.82C1052.19,-314.35 1277.06,-309.68 1457.34,-260 1459.29,-259.46 1461.27,-258.83 1463.23,-258.12"/>
<polygon fill="black" stroke="black" points="1464.96,-261.2 1472.87,-254.15 1462.29,-254.72 1464.96,-261.2"/>
</g>
<!-- mozilla -->
<g id="node23" class="node">
<title>mozilla</title>
<ellipse fill="none" stroke="black" cx="1637.34" cy="-242" rx="99.38" ry="18"/>
<text text-anchor="middle" x="1637.34" y="-238.3" font-family="Times,serif" font-size="14.00">Mozilla Foundation</text>
</g>
<!-- csswg&#45;&gt;mozilla -->
<g id="edge14" class="edge">
<title>csswg&#45;&gt;mozilla</title>
<path fill="none" stroke="black" d="M955.5,-310.23C1057.85,-303.72 1315.2,-285.99 1529.34,-260 1538.34,-258.91 1547.73,-257.63 1557.07,-256.28"/>
<polygon fill="black" stroke="black" points="1557.77,-259.71 1567.15,-254.79 1556.74,-252.79 1557.77,-259.71"/>
</g>
<!-- Adobe -->
<g id="node25" class="node">
<title>Adobe</title>
<ellipse fill="none" stroke="black" cx="1794.34" cy="-242" rx="39.79" ry="18"/>
<text text-anchor="middle" x="1794.34" y="-238.3" font-family="Times,serif" font-size="14.00">Adobe</text>
</g>
<!-- csswg&#45;&gt;Adobe -->
<g id="edge15" class="edge">
<title>csswg&#45;&gt;Adobe</title>
<path fill="none" stroke="black" d="M956.22,-311.72C1107.92,-307.24 1592.35,-290.8 1745.34,-260 1748.76,-259.31 1752.26,-258.45 1755.74,-257.47"/>
<polygon fill="black" stroke="black" points="1756.9,-260.77 1765.43,-254.48 1754.84,-254.08 1756.9,-260.77"/>
</g>
<!-- motto&#45;&gt;csswg -->
<g id="edge2" class="edge">
<title>motto&#45;&gt;csswg</title>
<path fill="none" stroke="black" d="M910.34,-367.7C910.34,-359.98 910.34,-350.71 910.34,-342.11"/>
<polygon fill="black" stroke="black" points="913.84,-342.1 910.34,-332.1 906.84,-342.1 913.84,-342.1"/>
</g>
<!-- more2 -->
<g id="node21" class="node">
<title>more2</title>
<text text-anchor="middle" x="1139.34" y="-90.3" font-family="Times,serif" font-size="14.00">...</text>
</g>
<!-- more2&#45;&gt;direction -->
<g id="edge38" class="edge">
<title>more2&#45;&gt;direction</title>
<path fill="none" stroke="black" d="M1112.21,-76.19C1109.27,-74.66 1106.28,-73.23 1103.34,-72 1051.15,-50.05 987.21,-34.57 947.62,-26.22"/>
<polygon fill="black" stroke="black" points="948.12,-22.75 937.62,-24.15 946.7,-29.6 948.12,-22.75"/>
</g>
<!-- agenda&#45;&gt;coherence -->
<g id="edge29" class="edge">
<title>agenda&#45;&gt;coherence</title>
<path fill="none" stroke="black" d="M881.92,-158.87C852.63,-148.36 805.67,-131.36 765.34,-116 765.14,-115.92 764.93,-115.84 764.72,-115.76"/>
<polygon fill="black" stroke="black" points="765.71,-112.39 755.12,-112.06 763.19,-118.92 765.71,-112.39"/>
</g>
<!-- agenda&#45;&gt;speed -->
<g id="edge30" class="edge">
<title>agenda&#45;&gt;speed</title>
<path fill="none" stroke="black" d="M891.88,-156.11C876.89,-145.65 855.38,-130.63 837.43,-118.1"/>
<polygon fill="black" stroke="black" points="839.16,-115.03 828.95,-112.18 835.15,-120.77 839.16,-115.03"/>
</g>
<!-- agenda&#45;&gt;mobile -->
<g id="edge31" class="edge">
<title>agenda&#45;&gt;mobile</title>
<path fill="none" stroke="black" d="M910.34,-151.84C910.34,-143.06 910.34,-132.16 910.34,-122.27"/>
<polygon fill="black" stroke="black" points="913.84,-122.07 910.34,-112.07 906.84,-122.07 913.84,-122.07"/>
</g>
<!-- agenda&#45;&gt;streamlining -->
<g id="edge32" class="edge">
<title>agenda&#45;&gt;streamlining</title>
<path fill="none" stroke="black" d="M931.52,-156.95C950.45,-146.17 978.66,-130.11 1001.61,-117.05"/>
<polygon fill="black" stroke="black" points="1003.48,-120.01 1010.44,-112.02 1000.02,-113.93 1003.48,-120.01"/>
</g>
<!-- agenda&#45;&gt;more2 -->
<g id="edge33" class="edge">
<title>agenda&#45;&gt;more2</title>
<path fill="none" stroke="black" d="M949.42,-161.4C987.03,-153.41 1045.37,-139.22 1102.65,-115.81"/>
<polygon fill="black" stroke="black" points="1104.33,-118.9 1112.21,-111.81 1101.63,-112.44 1104.33,-118.9"/>
</g>
<!-- mozilla&#45;&gt;agenda -->
<g id="edge27" class="edge">
<title>mozilla&#45;&gt;agenda</title>
<path fill="none" stroke="black" d="M1567.15,-229.21C1554.58,-227.31 1541.59,-225.49 1529.34,-224 1328.43,-199.62 1089.49,-182.5 976.2,-175.1"/>
<polygon fill="black" stroke="black" points="976.17,-171.59 965.97,-174.44 975.72,-178.58 976.17,-171.59"/>
</g>
<!-- Adobe&#45;&gt;agenda -->
<g id="edge28" class="edge">
<title>Adobe&#45;&gt;agenda</title>
<path fill="none" stroke="black" d="M1765.43,-229.52C1758.91,-227.34 1751.96,-225.33 1745.34,-224 1600.4,-194.82 1157.98,-178.53 982.83,-173.09"/>
<polygon fill="black" stroke="black" points="982.79,-169.58 972.69,-172.77 982.58,-176.58 982.79,-169.58"/>
</g>
</g>
</svg>
