graph "balsa-fonts" {
	graph [maxiter=999 overlap=false repulsiveforce=3]
	AAA [label=ume fontname="Ume P Gothic Balsa" fontsize=20 shape=plaintext]
	AAB [label=mincho fontname="Ume P Gothic Balsa" fontsize=17.5 shape=plaintext]
	AAB -- AAA [style=dotted]
	AAC [label=balsa fontname="Ume P Gothic Balsa" fontsize=15.0 shape=plaintext]
	AAC -- AAB [style=dotted]
	AAD [label=italic fontname="Ume P Gothic Balsa" fontsize=12.5 shape=plaintext]
	AAD -- AAC [style=dotted]
	AAE [label="condensed webfont" fontname="Ume P Gothic Balsa" fontsize=12.5 shape=plaintext]
	AAE -- AAC [style=dotted]
	AAF [label="bold webfont" fontname="Ume P Gothic Balsa" fontsize=12.5 shape=plaintext]
	AAF -- AAC [style=dotted]
	AAG [label=webfont fontname="Ume P Gothic Balsa" fontsize=12.5 shape=plaintext]
	AAG -- AAC [style=dotted]
	AAH [label=m fontname="Ume P Gothic Balsa" fontsize=12.5 shape=plaintext]
	AAH -- AAC [style=dotted]
	AAI [label=body fontname="Ume P Gothic Balsa" fontsize=12.5 shape=plaintext]
	AAI -- AAC [style=dotted]
	AAJ [label="full curves" fontname="Ume P Gothic Balsa" fontsize=12.5 shape=plaintext]
	AAJ -- AAC [style=dotted]
	AAK [label=fanzine fontname="Ume P Gothic Balsa" fontsize=15.0 shape=plaintext]
	AAK -- AAB [style=dotted]
	AAL [label="latin webfont" fontname="Ume P Gothic Balsa" fontsize=15.0 shape=plaintext]
	AAL -- AAB [style=dotted]
	AAM [label=shadow fontname="Ume P Gothic Balsa" fontsize=15.0 shape=plaintext]
	AAM -- AAB [style=dotted]
	AAN [label=x fontname="Ume P Gothic Balsa" fontsize=15.0 shape=plaintext]
	AAN -- AAB [style=dotted]
	AAO [label=helium fontname="Ume P Gothic Balsa" fontsize=15.0 shape=plaintext]
	AAO -- AAB [style=dotted]
	AAP [label=bigou fontname="Ume P Gothic Balsa" fontsize=15.0 shape=plaintext]
	AAP -- AAB [style=dotted]
	AAQ [label=p fontname="Ume P Gothic Balsa" fontsize=17.5 shape=plaintext]
	AAQ -- AAA [style=dotted]
	AAR [label=gothic fontname="Ume P Gothic Balsa" fontsize=15.0 shape=plaintext]
	AAR -- AAQ [style=dotted]
	AAS [label=vertical fontname="Ume P Gothic Balsa" fontsize=12.5 shape=plaintext]
	AAS -- AAR [style=dotted]
	AAT [label=italic fontname="Ume P Gothic Balsa" fontsize=10.0 shape=plaintext]
	AAT -- AAS [style=dotted]
	AAU [label=fanzine fontname="Ume P Gothic Balsa" fontsize=10.0 shape=plaintext]
	AAU -- AAS [style=dotted]
	AAV [label=webfont fontname="Ume P Gothic Balsa" fontsize=10.0 shape=plaintext]
	AAV -- AAS [style=dotted]
	AAW [label=balsa fontname="Ume P Gothic Balsa" fontsize=12.5 shape=plaintext]
	AAW -- AAR [style=dotted]
	AAX [label=italic fontname="Ume P Gothic Balsa" fontsize=10.0 shape=plaintext]
	AAX -- AAW [style=dotted]
	AAY [label=webfont fontname="Ume P Gothic Balsa" fontsize=10.0 shape=plaintext]
	AAY -- AAW [style=dotted]
	AAZ [label="bold webfont" fontname="Ume P Gothic Balsa" fontsize=10.0 shape=plaintext]
	AAZ -- AAW [style=dotted]
	ABA [label=jigsaw fontname="Ume P Gothic Balsa" fontsize=10.0 shape=plaintext]
	ABA -- AAW [style=dotted]
	ABB [label=straight fontname="Ume P Gothic Balsa" fontsize=10.0 shape=plaintext]
	ABB -- AAW [style=dotted]
	ABC [label=base fontname="Ume P Gothic Balsa" fontsize=7.5 shape=plaintext]
	ABC -- ABB [style=dotted]
	ABD [label=brut fontname="Ume P Gothic Balsa" fontsize=7.5 shape=plaintext]
	ABD -- ABB [style=dotted]
	ABE [label=soft fontname="Ume P Gothic Balsa" fontsize=7.5 shape=plaintext]
	ABE -- ABB [style=dotted]
	ABF [label=fanzine fontname="Ume P Gothic Balsa" fontsize=12.5 shape=plaintext]
	ABF -- AAR [style=dotted]
	ABG [label=balsa02 fontname="Ume P Gothic Balsa" fontsize=12.5 shape=plaintext]
	ABG -- AAR [style=dotted]
	ABH [label=rings fontname="Ume P Gothic Balsa" fontsize=12.5 shape=plaintext]
	ABH -- AAR [style=dotted]
	ABI [label=extrabold fontname="Ume P Gothic Balsa" fontsize=12.5 shape=plaintext]
	ABI -- AAR [style=dotted]
	ABJ [label="shadow webfont" fontname="Ume P Gothic Balsa" fontsize=12.5 shape=plaintext]
	ABJ -- AAR [style=dotted]
	ABK [label="strech contour" fontname="Ume P Gothic Balsa" fontsize=12.5 shape=plaintext]
	ABK -- AAR [style=dotted]
	ABL [label=mincho fontname="Ume P Gothic Balsa" fontsize=15.0 shape=plaintext]
	ABL -- AAQ [style=dotted]
	ABM [label=italic fontname="Ume P Gothic Balsa" fontsize=12.5 shape=plaintext]
	ABM -- ABL [style=dotted]
	ABN [label=webfont fontname="Ume P Gothic Balsa" fontsize=12.5 shape=plaintext]
	ABN -- ABL [style=dotted]
	ABO [label=pgo4 fontname="Ume P Gothic Balsa" fontsize=17.5 shape=plaintext]
	ABO -- AAA [style=dotted]
	ABP [label=pmo3 fontname="Ume P Gothic Balsa" fontsize=17.5 shape=plaintext]
	ABP -- AAA [style=dotted]
	ABQ [label="plume p" fontname="Ume P Gothic Balsa" fontsize=17.5 shape=plaintext]
	ABQ -- AAA [style=dotted]
	ABR [label=gothic fontname="Ume P Gothic Balsa" fontsize=15.0 shape=plaintext]
	ABR -- ABQ [style=dotted]
	ABS [label=120 fontname="Ume P Gothic Balsa" fontsize=12.5 shape=plaintext]
	ABS -- ABR [style=dotted]
	ABT [label=158 fontname="Ume P Gothic Balsa" fontsize=12.5 shape=plaintext]
	ABT -- ABR [style=dotted]
	ABU [label=200 fontname="Ume P Gothic Balsa" fontsize=12.5 shape=plaintext]
	ABU -- ABR [style=dotted]
	ABV [label=220 fontname="Ume P Gothic Balsa" fontsize=12.5 shape=plaintext]
	ABV -- ABR [style=dotted]
	ABW [label=260 fontname="Ume P Gothic Balsa" fontsize=12.5 shape=plaintext]
	ABW -- ABR [style=dotted]
	ABX [label=30 fontname="Ume P Gothic Balsa" fontsize=12.5 shape=plaintext]
	ABX -- ABR [style=dotted]
	ABY [label=300 fontname="Ume P Gothic Balsa" fontsize=12.5 shape=plaintext]
	ABY -- ABR [style=dotted]
	ABZ [label=330 fontname="Ume P Gothic Balsa" fontsize=12.5 shape=plaintext]
	ABZ -- ABR [style=dotted]
	ACA [label=410 fontname="Ume P Gothic Balsa" fontsize=12.5 shape=plaintext]
	ACA -- ABR [style=dotted]
	ACB [label=45 fontname="Ume P Gothic Balsa" fontsize=12.5 shape=plaintext]
	ACB -- ABR [style=dotted]
	ACC [label=500 fontname="Ume P Gothic Balsa" fontsize=12.5 shape=plaintext]
	ACC -- ABR [style=dotted]
	ACD [label=600 fontname="Ume P Gothic Balsa" fontsize=12.5 shape=plaintext]
	ACD -- ABR [style=dotted]
	ACE [label=65 fontname="Ume P Gothic Balsa" fontsize=12.5 shape=plaintext]
	ACE -- ABR [style=dotted]
	ACF [label=90 fontname="Ume P Gothic Balsa" fontsize=12.5 shape=plaintext]
	ACF -- ABR [style=dotted]
	ACG [label="narrow squared 600" fontname="Ume P Gothic Balsa" fontsize=12.5 shape=plaintext]
	ACG -- ABR [style=dotted]
	ACH [label=mincho fontname="Ume P Gothic Balsa" fontsize=15.0 shape=plaintext]
	ACH -- ABQ [style=dotted]
	ACI [label=120 fontname="Ume P Gothic Balsa" fontsize=12.5 shape=plaintext]
	ACI -- ACH [style=dotted]
	ACJ [label=158 fontname="Ume P Gothic Balsa" fontsize=12.5 shape=plaintext]
	ACJ -- ACH [style=dotted]
	ACK [label=200 fontname="Ume P Gothic Balsa" fontsize=12.5 shape=plaintext]
	ACK -- ACH [style=dotted]
	ACL [label=220 fontname="Ume P Gothic Balsa" fontsize=12.5 shape=plaintext]
	ACL -- ACH [style=dotted]
	ACM [label=260 fontname="Ume P Gothic Balsa" fontsize=12.5 shape=plaintext]
	ACM -- ACH [style=dotted]
	ACN [label=30 fontname="Ume P Gothic Balsa" fontsize=12.5 shape=plaintext]
	ACN -- ACH [style=dotted]
	ACO [label=300 fontname="Ume P Gothic Balsa" fontsize=12.5 shape=plaintext]
	ACO -- ACH [style=dotted]
	ACP [label=330 fontname="Ume P Gothic Balsa" fontsize=12.5 shape=plaintext]
	ACP -- ACH [style=dotted]
	ACQ [label=410 fontname="Ume P Gothic Balsa" fontsize=12.5 shape=plaintext]
	ACQ -- ACH [style=dotted]
	ACR [label=45 fontname="Ume P Gothic Balsa" fontsize=12.5 shape=plaintext]
	ACR -- ACH [style=dotted]
	ACS [label=500 fontname="Ume P Gothic Balsa" fontsize=12.5 shape=plaintext]
	ACS -- ACH [style=dotted]
	ACT [label=600 fontname="Ume P Gothic Balsa" fontsize=12.5 shape=plaintext]
	ACT -- ACH [style=dotted]
	ACU [label=65 fontname="Ume P Gothic Balsa" fontsize=12.5 shape=plaintext]
	ACU -- ACH [style=dotted]
	ACV [label=90 fontname="Ume P Gothic Balsa" fontsize=12.5 shape=plaintext]
	ACV -- ACH [style=dotted]
	ACW [label=loop fontname="Ume P Gothic Balsa" fontsize=17.5 shape=plaintext]
	ACW -- AAA [style=dotted]
	ACX [label=gothic12 fontname="Ume P Gothic Balsa" fontsize=15.0 shape=plaintext]
	ACX -- ACW [style=dotted]
	ACY [label=gothic16 fontname="Ume P Gothic Balsa" fontsize=15.0 shape=plaintext]
	ACY -- ACW [style=dotted]
	ACZ [label=gothic6 fontname="Ume P Gothic Balsa" fontsize=15.0 shape=plaintext]
	ACZ -- ACW [style=dotted]
	ADA [label=mincho12 fontname="Ume P Gothic Balsa" fontsize=15.0 shape=plaintext]
	ADA -- ACW [style=dotted]
	ADB [label=vertical12 fontname="Ume P Gothic Balsa" fontsize=15.0 shape=plaintext]
	ADB -- ACW [style=dotted]
	ADC [label=vertical6 fontname="Ume P Gothic Balsa" fontsize=15.0 shape=plaintext]
	ADC -- ACW [style=dotted]
	ADD [label="vertical wide" fontname="Ume P Gothic Balsa" fontsize=17.5 shape=plaintext]
	ADD -- AAA [style=dotted]
	ADE [label="bridge webfont" fontname="Ume P Gothic Balsa" fontsize=15.0 shape=plaintext]
	ADE -- ADD [style=dotted]
	ADF [label="oblique webfont" fontname="Ume P Gothic Balsa" fontsize=15.0 shape=plaintext]
	ADF -- ADD [style=dotted]
	ADG [label=webfont fontname="Ume P Gothic Balsa" fontsize=15.0 shape=plaintext]
	ADG -- ADD [style=dotted]
	ADH [label="stroke stroke" fontname="Ume P Gothic Balsa" fontsize=17.5 shape=plaintext]
	ADH -- AAA [style=dotted]
	ADI [label=master fontname="Ume P Gothic Balsa" fontsize=15.0 shape=plaintext]
	ADI -- ADH [style=dotted]
	ADJ [label=condensed fontname="Ume P Gothic Balsa" fontsize=12.5 shape=plaintext]
	ADJ -- ADI [style=dotted]
	ADK [label=expanded fontname="Ume P Gothic Balsa" fontsize=12.5 shape=plaintext]
	ADK -- ADI [style=dotted]
	ADL [label=saison2 fontname="Ume P Gothic Balsa" fontsize=15.0 shape=plaintext]
	ADL -- ADH [style=dotted]
	ADM [label="condensed int" fontname="Ume P Gothic Balsa" fontsize=15.0 shape=plaintext]
	ADM -- ADH [style=dotted]
	ADN [label="180 ext 180" fontname="Ume P Gothic Balsa" fontsize=12.5 shape=plaintext]
	ADN -- ADM [style=dotted]
	ADO [label="235 ext 235" fontname="Ume P Gothic Balsa" fontsize=12.5 shape=plaintext]
	ADO -- ADM [style=dotted]
	ADP [label="100 ext 100" fontname="Ume P Gothic Balsa" fontsize=12.5 shape=plaintext]
	ADP -- ADM [style=dotted]
	ADQ [label=expended fontname="Ume P Gothic Balsa" fontsize=15.0 shape=plaintext]
	ADQ -- ADH [style=dotted]
	ADR [label="int 100 ext 100" fontname="Ume P Gothic Balsa" fontsize=12.5 shape=plaintext]
	ADR -- ADQ [style=dotted]
	ADS [label=fat fontname="Ume P Gothic Balsa" fontsize=12.5 shape=plaintext]
	ADS -- ADQ [style=dotted]
	ADT [label="expanded int 235 ext 235" fontname="Ume P Gothic Balsa" fontsize=15.0 shape=plaintext]
	ADT -- ADH [style=dotted]
	ADU [label=extra fontname="Ume P Gothic Balsa" fontsize=15.0 shape=plaintext]
	ADU -- ADH [style=dotted]
	ADV [label="condensed int 235 ext 235" fontname="Ume P Gothic Balsa" fontsize=12.5 shape=plaintext]
	ADV -- ADU [style=dotted]
	ADW [label="extra condensed int 235 ext 235" fontname="Ume P Gothic Balsa" fontsize=12.5 shape=plaintext]
	ADW -- ADU [style=dotted]
	ADX [label=scalex fontname="Ume P Gothic Balsa" fontsize=15.0 shape=plaintext]
	ADX -- ADH [style=dotted]
	ADY [label=0 fontname="Ume P Gothic Balsa" fontsize=12.5 shape=plaintext]
	ADY -- ADX [style=dotted]
	ADZ [label="5 int 500 ext 500" fontname="Ume P Gothic Balsa" fontsize=10.0 shape=plaintext]
	ADZ -- ADY [style=dotted]
	AEA [label="7 int 500 ext 500" fontname="Ume P Gothic Balsa" fontsize=10.0 shape=plaintext]
	AEA -- ADY [style=dotted]
	AEB [label=1 fontname="Ume P Gothic Balsa" fontsize=12.5 shape=plaintext]
	AEB -- ADX [style=dotted]
	AEC [label="0 int 500 ext 500" fontname="Ume P Gothic Balsa" fontsize=10.0 shape=plaintext]
	AEC -- AEB [style=dotted]
	AED [label="2 int 500 ext 500" fontname="Ume P Gothic Balsa" fontsize=10.0 shape=plaintext]
	AED -- AEB [style=dotted]
	AEE [label="scale x" fontname="Ume P Gothic Balsa" fontsize=15.0 shape=plaintext]
	AEE -- ADH [style=dotted]
	AEF [label=0 fontname="Ume P Gothic Balsa" fontsize=12.5 shape=plaintext]
	AEF -- AEE [style=dotted]
	AEG [label="5 int 500 ext 500" fontname="Ume P Gothic Balsa" fontsize=10.0 shape=plaintext]
	AEG -- AEF [style=dotted]
	AEH [label="7 int 500 ext 500" fontname="Ume P Gothic Balsa" fontsize=10.0 shape=plaintext]
	AEH -- AEF [style=dotted]
	AEI [label=1 fontname="Ume P Gothic Balsa" fontsize=12.5 shape=plaintext]
	AEI -- AEE [style=dotted]
	AEJ [label="0 int" fontname="Ume P Gothic Balsa" fontsize=10.0 shape=plaintext]
	AEJ -- AEI [style=dotted]
	AEK [label="500 ext 500" fontname="Ume P Gothic Balsa" fontsize=7.5 shape=plaintext]
	AEK -- AEJ [style=dotted]
	AEL [label="100 ext 100" fontname="Ume P Gothic Balsa" fontsize=7.5 shape=plaintext]
	AEL -- AEJ [style=dotted]
	AEM [label="2 int" fontname="Ume P Gothic Balsa" fontsize=10.0 shape=plaintext]
	AEM -- AEI [style=dotted]
	AEN [label="140 ext 140" fontname="Ume P Gothic Balsa" fontsize=7.5 shape=plaintext]
	AEN -- AEM [style=dotted]
	AEO [label="500 ext 500" fontname="Ume P Gothic Balsa" fontsize=7.5 shape=plaintext]
	AEO -- AEM [style=dotted]
	AEP [label="100 ext 100" fontname="Ume P Gothic Balsa" fontsize=7.5 shape=plaintext]
	AEP -- AEM [style=dotted]
	AEQ [label="affiche saison" fontname="Ume P Gothic Balsa" fontsize=15.0 shape=plaintext]
	AEQ -- ADH [style=dotted]
	AER [label="fat fat" fontname="Ume P Gothic Balsa" fontsize=15.0 shape=plaintext]
	AER -- ADH [style=dotted]
	AES [label=bold fontname="Ume P Gothic Balsa" fontsize=17.5 shape=plaintext]
	AES -- AAA [style=dotted]
	AET [label=medium fontname="Ume P Gothic Balsa" fontsize=17.5 shape=plaintext]
	AET -- AAA [style=dotted]
	AEU [label="condensed bold" fontname="Ume P Gothic Balsa" fontsize=17.5 shape=plaintext]
	AEU -- AAA [style=dotted]
	AEV [label=expanded fontname="Ume P Gothic Balsa" fontsize=17.5 shape=plaintext]
	AEV -- AAA [style=dotted]
	AEW [label="balsa arrow" fontname="Ume P Gothic Balsa" fontsize=17.5 shape=plaintext]
	AEW -- AAA [style=dotted]
	AEX [label="straight soft" fontname="Ume P Gothic Balsa" fontsize=17.5 shape=plaintext]
	AEX -- AAA [style=dotted]
	AEY [label=helium fontname="Ume P Gothic Balsa" fontsize=17.5 shape=plaintext]
	AEY -- AAA [style=dotted]
	AEZ [label=balsa fontname="Ume P Gothic Balsa" fontsize=20 shape=plaintext]
	AFA [label=logo fontname="Ume P Gothic Balsa" fontsize=17.5 shape=plaintext]
	AFA -- AEZ [style=dotted]
	AFB [label=stroke50 fontname="Ume P Gothic Balsa" fontsize=17.5 shape=plaintext]
	AFB -- AEZ [style=dotted]
	AFC [label=tyson fontname="Ume P Gothic Balsa" fontsize=20 shape=plaintext]
	AFD [label=oswald fontname="Ume P Gothic Balsa" fontsize=20 shape=plaintext]
	AFE [label=bold fontname="Ume P Gothic Balsa" fontsize=17.5 shape=plaintext]
	AFE -- AFD [style=dotted]
	AFF [label=light fontname="Ume P Gothic Balsa" fontsize=17.5 shape=plaintext]
	AFF -- AFD [style=dotted]
	AFG [label=regular fontname="Ume P Gothic Balsa" fontsize=17.5 shape=plaintext]
	AFG -- AFD [style=dotted]
	AFH [label="franklin gothic" fontname="Ume P Gothic Balsa" fontsize=20 shape=plaintext]
	AFI [label="musical balsa" fontname="Ume P Gothic Balsa" fontsize=20 shape=plaintext]
	AFJ [label="blank unicode" fontname="Ume P Gothic Balsa" fontsize=20 shape=plaintext]
	AFK [label=belogodor fontname="Ume P Gothic Balsa" fontsize=20 shape=plaintext]
}
